%YAML 1.1
%TAG !u! tag:unity3d.com,2011:
--- !u!1 &100000
GameObject:
  m_ObjectHideFlags: 0
  m_PrefabParentObject: {fileID: 0}
  m_PrefabInternal: {fileID: 100100000}
  serializedVersion: 4
  m_Component:
  - 4: {fileID: 400000}
  - 114: {fileID: 11400000}
  m_Layer: 8
  m_Name: SciFi Font - Header
  m_TagString: Untagged
  m_Icon: {fileID: 0}
  m_NavMeshLayer: 0
  m_StaticEditorFlags: 0
  m_IsActive: 1
--- !u!1002 &100001
EditorExtensionImpl:
  serializedVersion: 6
--- !u!4 &400000
Transform:
  m_ObjectHideFlags: 1
  m_PrefabParentObject: {fileID: 0}
  m_PrefabInternal: {fileID: 100100000}
  m_GameObject: {fileID: 100000}
  m_LocalRotation: {x: 0, y: 0, z: 0, w: 1}
  m_LocalPosition: {x: 0, y: 0, z: 0}
  m_LocalScale: {x: 1, y: 1, z: 1}
  m_Children: []
  m_Father: {fileID: 0}
  m_RootOrder: 0
--- !u!1002 &400001
EditorExtensionImpl:
  serializedVersion: 6
--- !u!114 &11400000
MonoBehaviour:
  m_ObjectHideFlags: 1
  m_PrefabParentObject: {fileID: 0}
  m_PrefabInternal: {fileID: 100100000}
  m_GameObject: {fileID: 100000}
  m_Enabled: 1
  m_EditorHideFlags: 0
  m_Script: {fileID: 11500000, guid: 0b4eb3a400afab046abb8471a9d746d6, type: 3}
  m_Name: 
  m_EditorClassIdentifier: 
  mMat: {fileID: 2100000, guid: d650d98b3c4028a4a8b7225c1a6482f8, type: 2}
  mUVRect:
    serializedVersion: 2
    x: 0
    y: 0
    width: .5
    height: 1
  mFont:
    mSize: 28
    mBase: 21
    mWidth: 256
    mHeight: 512
    mSpriteName: Font - Header
    mSaved:
    - index: 32
      x: 244
      y: 425
      width: 7
      height: 7
      offsetX: -3
      offsetY: 18
      advance: 9
      channel: 0
      kerning: 
    - index: 33
      x: 240
      y: 203
      width: 10
      height: 21
      offsetX: -2
      offsetY: 3
      advance: 7
      channel: 0
      kerning: 
    - index: 34
      x: 14
      y: 453
      width: 16
      height: 13
      offsetX: -2
      offsetY: 2
      advance: 12
      channel: 0
      kerning: 
    - index: 35
      x: 108
      y: 429
      width: 23
      height: 18
      offsetX: -3
      offsetY: 6
      advance: 16
      channel: 0
      kerning: 
    - index: 36
      x: 202
      y: 149
      width: 24
      height: 25
      offsetX: -2
      offsetY: 1
      advance: 21
      channel: 0
      kerning: 
    - index: 37
      x: 180
      y: 203
      width: 26
      height: 21
      offsetX: -3
      offsetY: 3
      advance: 20
      channel: 0
      kerning: 
    - index: 38
      x: 118
      y: 309
      width: 29
      height: 20
      offsetX: -2
      offsetY: 4
      advance: 24
      channel: 0
      kerning: 
    - index: 39
      x: 48
      y: 453
      width: 10
      height: 13
      offsetX: -2
      offsetY: 2
      advance: 7
      channel: 0
      kerning: 
    - index: 40
      x: 45
      y: 180
      width: 13
      height: 25
      offsetX: -2
      offsetY: 1
      advance: 9
      channel: 0
      kerning: 
    - index: 41
      x: 28
      y: 180
      width: 13
      height: 25
      offsetX: -2
      offsetY: 1
      advance: 9
      channel: 0
      kerning: 
    - index: 42
      x: 223
      y: 429
      width: 17
      height: 14
      offsetX: -3
      offsetY: 3
      advance: 11
      channel: 0
      kerning: 
    - index: 43
      x: 158
      y: 429
      width: 18
      height: 17
      offsetX: -3
      offsetY: 5
      advance: 12
      channel: 0
      kerning: 
    - index: 44
      x: 34
      y: 453
      width: 10
      height: 13
      offsetX: -2
      offsetY: 16
      advance: 7
      channel: 0
      kerning: 
    - index: 45
      x: 165
      y: 450
      width: 18
      height: 9
      offsetX: -2
      offsetY: 9
      advance: 14
      channel: 0
      kerning: 
    - index: 46
      x: 206
      y: 448
      width: 10
      height: 9
      offsetX: -2
      offsetY: 16
      advance: 6
      channel: 0
      kerning: 
    - index: 47
      x: 87
      y: 234
      width: 25
      height: 21
      offsetX: -3
      offsetY: 3
      advance: 19
      channel: 0
      kerning: 
    - index: 48
      x: 29
      y: 405
      width: 25
      height: 20
      offsetX: -2
      offsetY: 4
      advance: 21
      channel: 0
      kerning: 
    - index: 49
      x: 196
      y: 278
      width: 14
      height: 21
      offsetX: -4
      offsetY: 3
      advance: 9
      channel: 0
      kerning: 
    - index: 50
      x: 58
      y: 405
      width: 25
      height: 20
      offsetX: -2
      offsetY: 4
      advance: 21
      channel: 0
      kerning: 
    - index: 51
      x: 28
      y: 429
      width: 24
      height: 20
      offsetX: -2
      offsetY: 4
      advance: 21
      channel: 0
      kerning: 
    - index: 52
      x: 145
      y: 230
      width: 25
      height: 21
      offsetX: -3
      offsetY: 3
      advance: 20
      channel: 0
      kerning: 
    - index: 53
      x: 0
      y: 405
      width: 25
      height: 20
      offsetX: -2
      offsetY: 4
      advance: 21
      channel: 0
      kerning: 
    - index: 54
      x: 87
      y: 405
      width: 25
      height: 20
      offsetX: -2
      offsetY: 4
      advance: 21
      channel: 0
      kerning: 
    - index: 55
      x: 181
      y: 305
      width: 26
      height: 20
      offsetX: -3
      offsetY: 4
      advance: 20
      channel: 0
      kerning: 
    - index: 56
      x: 116
      y: 405
      width: 25
      height: 20
      offsetX: -2
      offsetY: 4
      advance: 21
      channel: 0
      kerning: 
    - index: 57
      x: 120
      y: 333
      width: 25
      height: 20
      offsetX: -2
      offsetY: 4
      advance: 21
      channel: 0
      kerning: 
    - index: 58
      x: 0
      y: 453
      width: 10
      height: 14
      offsetX: -2
      offsetY: 7
      advance: 6
      channel: 0
      kerning: 
    - index: 59
      x: 241
      y: 303
      width: 10
      height: 18
      offsetX: -2
      offsetY: 10
      advance: 7
      channel: 0
      kerning: 
    - index: 60
      x: 232
      y: 253
      width: 17
      height: 21
      offsetX: -3
      offsetY: 3
      advance: 12
      channel: 0
      kerning: 
    - index: 61
      x: 180
      y: 429
      width: 18
      height: 15
      offsetX: -2
      offsetY: 6
      advance: 14
      channel: 0
      kerning: 
    - index: 62
      x: 232
      y: 228
      width: 17
      height: 21
      offsetX: -2
      offsetY: 3
      advance: 12
      channel: 0
      kerning: 
    - index: 63
      x: 82
      y: 429
      width: 22
      height: 20
      offsetX: -2
      offsetY: 4
      advance: 18
      channel: 0
      kerning: 
    - index: 64
      x: 149
      y: 333
      width: 25
      height: 20
      offsetX: -1
      offsetY: 4
      advance: 22
      channel: 0
      kerning: 
    - index: 65
      x: 192
      y: 178
      width: 26
      height: 21
      offsetX: -3
      offsetY: 3
      advance: 19
      channel: 0
      kerning: 
    - index: 66
      x: 178
      y: 329
      width: 25
      height: 20
      offsetX: -2
      offsetY: 4
      advance: 21
      channel: 0
      kerning: 
    - index: 67
      x: 0
      y: 429
      width: 24
      height: 20
      offsetX: -1
      offsetY: 4
      advance: 21
      channel: 0
      kerning: 
    - index: 68
      x: 207
      y: 329
      width: 25
      height: 20
      offsetX: -1
      offsetY: 4
      advance: 21
      channel: 0
      kerning: 
    - index: 69
      x: 0
      y: 357
      width: 25
      height: 20
      offsetX: -1
      offsetY: 4
      advance: 21
      channel: 0
      kerning: 
    - index: 70
      x: 29
      y: 357
      width: 25
      height: 20
      offsetX: -1
      offsetY: 4
      advance: 20
      channel: 0
      kerning: 
    - index: 71
      x: 58
      y: 357
      width: 25
      height: 20
      offsetX: -2
      offsetY: 4
      advance: 21
      channel: 0
      kerning: 
    - index: 72
      x: 116
      y: 255
      width: 25
      height: 21
      offsetX: -2
      offsetY: 3
      advance: 21
      channel: 0
      kerning: 
    - index: 73
      x: 214
      y: 278
      width: 10
      height: 21
      offsetX: -2
      offsetY: 3
      advance: 7
      channel: 0
      kerning: 
    - index: 74
      x: 142
      y: 280
      width: 23
      height: 21
      offsetX: -3
      offsetY: 3
      advance: 19
      channel: 0
      kerning: 
    - index: 75
      x: 29
      y: 234
      width: 25
      height: 21
      offsetX: -2
      offsetY: 3
      advance: 21
      channel: 0
      kerning: 
    - index: 76
      x: 114
      y: 284
      width: 24
      height: 21
      offsetX: -1
      offsetY: 3
      advance: 20
      channel: 0
      kerning: 
    - index: 77
      x: 145
      y: 255
      width: 25
      height: 21
      offsetX: -2
      offsetY: 3
      advance: 21
      channel: 0
      kerning: 
    - index: 78
      x: 174
      y: 253
      width: 25
      height: 21
      offsetX: -2
      offsetY: 3
      advance: 21
      channel: 0
      kerning: 
    - index: 79
      x: 87
      y: 357
      width: 25
      height: 20
      offsetX: -2
      offsetY: 4
      advance: 21
      channel: 0
      kerning: 
    - index: 80
      x: 116
      y: 357
      width: 25
      height: 20
      offsetX: -2
      offsetY: 4
      advance: 21
      channel: 0
      kerning: 
    - index: 81
      x: 62
      y: 179
      width: 25
      height: 22
      offsetX: -2
      offsetY: 4
      advance: 21
      channel: 0
      kerning: 
    - index: 82
      x: 60
      y: 333
      width: 26
      height: 20
      offsetX: -2
      offsetY: 4
      advance: 21
      channel: 0
      kerning: 
    - index: 83
      x: 145
      y: 357
      width: 25
      height: 20
      offsetX: -2
      offsetY: 4
      advance: 21
      channel: 0
      kerning: 
    - index: 84
      x: 201
      y: 405
      width: 24
      height: 20
      offsetX: -2
      offsetY: 4
      advance: 19
      channel: 0
      kerning: 
    - index: 85
      x: 29
      y: 284
      width: 25
      height: 21
      offsetX: -2
      offsetY: 3
      advance: 21
      channel: 0
      kerning: 
    - index: 86
      x: 222
      y: 178
      width: 26
      height: 21
      offsetX: -3
      offsetY: 3
      advance: 19
      channel: 0
      kerning: 
    - index: 87
      x: 0
      y: 234
      width: 25
      height: 21
      offsetX: -3
      offsetY: 3
      advance: 19
      channel: 0
      kerning: 
    - index: 88
      x: 30
      y: 209
      width: 26
      height: 21
      offsetX: -3
      offsetY: 3
      advance: 20
      channel: 0
      kerning: 
    - index: 89
      x: 150
      y: 203
      width: 26
      height: 21
      offsetX: -3
      offsetY: 3
      advance: 19
      channel: 0
      kerning: 
    - index: 90
      x: 30
      y: 333
      width: 26
      height: 20
      offsetX: -3
      offsetY: 4
      advance: 20
      channel: 0
      kerning: 
    - index: 91
      x: 109
      y: 120
      width: 11
      height: 26
      offsetX: -1
      offsetY: 1
      advance: 9
      channel: 0
      kerning: 
    - index: 92
      x: 58
      y: 234
      width: 25
      height: 21
      offsetX: -3
      offsetY: 3
      advance: 19
      channel: 0
      kerning: 
    - index: 93
      x: 124
      y: 120
      width: 11
      height: 26
      offsetX: -1
      offsetY: 1
      advance: 9
      channel: 0
      kerning: 
    - index: 94
      x: 62
      y: 453
      width: 22
      height: 12
      offsetX: -3
      offsetY: 0
      advance: 16
      channel: 0
      kerning: 
    - index: 95
      x: 139
      y: 451
      width: 22
      height: 9
      offsetX: -2
      offsetY: 21
      advance: 18
      channel: 0
      kerning: 
    - index: 96
      x: 122
      y: 451
      width: 13
      height: 11
      offsetX: -3
      offsetY: -2
      advance: 7
      channel: 0
      kerning: 
    - index: 97
      x: 90
      y: 205
      width: 26
      height: 21
      offsetX: -3
      offsetY: 3
      advance: 19
      channel: 0
      kerning: 
    - index: 98
      x: 174
      y: 357
      width: 25
      height: 20
      offsetX: -2
      offsetY: 4
      advance: 21
      channel: 0
      kerning: 
    - index: 99
      x: 173
      y: 405
      width: 24
      height: 20
      offsetX: -1
      offsetY: 4
      advance: 21
      channel: 0
      kerning: 
    - index: 100
      x: 0
      y: 381
      width: 25
      height: 20
      offsetX: -1
      offsetY: 4
      advance: 21
      channel: 0
      kerning: 
    - index: 101
      x: 29
      y: 381
      width: 25
      height: 20
      offsetX: -1
      offsetY: 4
      advance: 21
      channel: 0
      kerning: 
    - index: 102
      x: 58
      y: 381
      width: 25
      height: 20
      offsetX: -1
      offsetY: 4
      advance: 20
      channel: 0
      kerning: 
    - index: 103
      x: 87
      y: 381
      width: 25
      height: 20
      offsetX: -2
      offsetY: 4
      advance: 21
      channel: 0
      kerning: 
    - index: 104
      x: 87
      y: 259
      width: 25
      height: 21
      offsetX: -2
      offsetY: 3
      advance: 21
      channel: 0
      kerning: 
    - index: 105
      x: 228
      y: 278
      width: 10
      height: 21
      offsetX: -2
      offsetY: 3
      advance: 7
      channel: 0
      kerning: 
    - index: 106
      x: 169
      y: 280
      width: 23
      height: 21
      offsetX: -3
      offsetY: 3
      advance: 19
      channel: 0
      kerning: 
    - index: 107
      x: 203
      y: 253
      width: 25
      height: 21
      offsetX: -2
      offsetY: 3
      advance: 21
      channel: 0
      kerning: 
    - index: 108
      x: 86
      y: 284
      width: 24
      height: 21
      offsetX: -1
      offsetY: 3
      advance: 20
      channel: 0
      kerning: 
    - index: 109
      x: 174
      y: 228
      width: 25
      height: 21
      offsetX: -2
      offsetY: 3
      advance: 21
      channel: 0
      kerning: 
    - index: 110
      x: 58
      y: 259
      width: 25
      height: 21
      offsetX: -2
      offsetY: 3
      advance: 21
      channel: 0
      kerning: 
    - index: 111
      x: 116
      y: 381
      width: 25
      height: 20
      offsetX: -2
      offsetY: 4
      advance: 21
      channel: 0
      kerning: 
    - index: 112
      x: 174
      y: 381
      width: 25
      height: 20
      offsetX: -2
      offsetY: 4
      advance: 21
      channel: 0
      kerning: 
    - index: 113
      x: 91
      y: 179
      width: 25
      height: 22
      offsetX: -2
      offsetY: 4
      advance: 21
      channel: 0
      kerning: 
    - index: 114
      x: 90
      y: 333
      width: 26
      height: 20
      offsetX: -2
      offsetY: 4
      advance: 21
      channel: 0
      kerning: 
    - index: 115
      x: 203
      y: 377
      width: 25
      height: 20
      offsetX: -2
      offsetY: 4
      advance: 21
      channel: 0
      kerning: 
    - index: 116
      x: 145
      y: 405
      width: 24
      height: 20
      offsetX: -2
      offsetY: 4
      advance: 19
      channel: 0
      kerning: 
    - index: 117
      x: 116
      y: 230
      width: 25
      height: 21
      offsetX: -2
      offsetY: 3
      advance: 21
      channel: 0
      kerning: 
    - index: 118
      x: 60
      y: 209
      width: 26
      height: 21
      offsetX: -3
      offsetY: 3
      advance: 19
      channel: 0
      kerning: 
    - index: 119
      x: 203
      y: 228
      width: 25
      height: 21
      offsetX: -3
      offsetY: 3
      advance: 19
      channel: 0
      kerning: 
    - index: 120
      x: 120
      y: 205
      width: 26
      height: 21
      offsetX: -3
      offsetY: 3
      advance: 20
      channel: 0
      kerning: 
    - index: 121
      x: 210
      y: 203
      width: 26
      height: 21
      offsetX: -3
      offsetY: 3
      advance: 19
      channel: 0
      kerning: 
    - index: 122
      x: 0
      y: 333
      width: 26
      height: 20
      offsetX: -3
      offsetY: 4
      advance: 20
      channel: 0
      kerning: 
    - index: 123
      x: 0
      y: 209
      width: 26
      height: 21
      offsetX: -3
      offsetY: 3
      advance: 19
      channel: 0
      kerning: 
    - index: 124
      x: 0
      y: 0
      width: 10
      height: 27
      offsetX: -1
      offsetY: 1
      advance: 7
      channel: 0
      kerning: 
    - index: 125
      x: 29
      y: 259
      width: 25
      height: 21
      offsetX: -3
      offsetY: 3
      advance: 19
      channel: 0
      kerning: 
    - index: 126
      x: 147
      y: 178
      width: 41
      height: 21
      offsetX: -2
      offsetY: 3
      advance: 38
      channel: 0
      kerning: 
    - index: 160
      x: 220
      y: 448
      width: 7
      height: 7
      offsetX: -3
      offsetY: 18
      advance: 9
      channel: 0
      kerning: 
    - index: 161
      x: 242
      y: 278
      width: 10
      height: 21
      offsetX: -2
      offsetY: 3
      advance: 7
      channel: 0
      kerning: 
    - index: 162
      x: 232
      y: 353
      width: 18
      height: 19
      offsetX: -2
      offsetY: 1
      advance: 13
      channel: 0
      kerning: 
    - index: 163
      x: 229
      y: 401
      width: 23
      height: 20
      offsetX: -1
      offsetY: 4
      advance: 19
      channel: 0
      kerning: 
    - index: 165
      x: 58
      y: 284
      width: 24
      height: 21
      offsetX: -2
      offsetY: 3
      advance: 20
      channel: 0
      kerning: 
    - index: 168
      x: 187
      y: 448
      width: 15
      height: 9
      offsetX: -2
      offsetY: -1
      advance: 11
      channel: 0
      kerning: 
    - index: 169
      x: 120
      y: 179
      width: 23
      height: 22
      offsetX: -1
      offsetY: 3
      advance: 21
      channel: 0
      kerning: 
    - index: 171
      x: 232
      y: 376
      width: 20
      height: 18
      offsetX: -3
      offsetY: 6
      advance: 15
      channel: 0
      kerning: 
    - index: 174
      x: 202
      y: 429
      width: 17
      height: 15
      offsetX: 2
      offsetY: 3
      advance: 21
      channel: 0
      kerning: 
    - index: 176
      x: 236
      y: 327
      width: 15
      height: 15
      offsetX: -2
      offsetY: 0
      advance: 11
      channel: 0
      kerning: 
    - index: 180
      x: 105
      y: 453
      width: 13
      height: 11
      offsetX: -3
      offsetY: -2
      advance: 7
      channel: 0
      kerning: 
    - index: 184
      x: 88
      y: 453
      width: 13
      height: 12
      offsetX: -3
      offsetY: 17
      advance: 7
      channel: 0
      kerning: 
    - index: 187
      x: 135
      y: 429
      width: 19
      height: 18
      offsetX: -2
      offsetY: 6
      advance: 15
      channel: 0
      kerning: 
    - index: 191
      x: 56
      y: 429
      width: 22
      height: 20
      offsetX: -2
      offsetY: 4
      advance: 18
      channel: 0
      kerning: 
    - index: 192
      x: 14
      y: 0
      width: 26
      height: 26
      offsetX: -3
      offsetY: -2
      advance: 19
      channel: 0
      kerning: 
    - index: 193
      x: 44
      y: 0
      width: 26
      height: 26
      offsetX: -3
      offsetY: -2
      advance: 19
      channel: 0
      kerning: 
    - index: 194
      x: 164
      y: 0
      width: 26
      height: 26
      offsetX: -3
      offsetY: -2
      advance: 19
      channel: 0
      kerning: 
    - index: 195
      x: 60
      y: 30
      width: 26
      height: 26
      offsetX: -3
      offsetY: -2
      advance: 19
      channel: 0
      kerning: 
    - index: 196
      x: 169
      y: 120
      width: 26
      height: 25
      offsetX: -3
      offsetY: -1
      advance: 19
      channel: 0
      kerning: 
    - index: 197
      x: 194
      y: 0
      width: 26
      height: 26
      offsetX: -3
      offsetY: -2
      advance: 19
      channel: 0
      kerning: 
    - index: 198
      x: 83
      y: 309
      width: 31
      height: 20
      offsetX: -3
      offsetY: 4
      advance: 26
      channel: 0
      kerning: 
    - index: 199
      x: 174
      y: 149
      width: 24
      height: 25
      offsetX: -1
      offsetY: 4
      advance: 21
      channel: 0
      kerning: 
    - index: 200
      x: 0
      y: 91
      width: 25
      height: 26
      offsetX: -1
      offsetY: -2
      advance: 21
      channel: 0
      kerning: 
    - index: 201
      x: 0
      y: 61
      width: 25
      height: 26
      offsetX: -1
      offsetY: -2
      advance: 21
      channel: 0
      kerning: 
    - index: 202
      x: 116
      y: 90
      width: 25
      height: 26
      offsetX: -1
      offsetY: -2
      advance: 21
      channel: 0
      kerning: 
    - index: 203
      x: 29
      y: 151
      width: 25
      height: 25
      offsetX: -1
      offsetY: -1
      advance: 21
      channel: 0
      kerning: 
    - index: 204
      x: 232
      y: 90
      width: 13
      height: 26
      offsetX: -4
      offsetY: -2
      advance: 7
      channel: 0
      kerning: 
    - index: 205
      x: 75
      y: 120
      width: 13
      height: 26
      offsetX: -2
      offsetY: -2
      advance: 7
      channel: 0
      kerning: 
    - index: 206
      x: 232
      y: 60
      width: 16
      height: 26
      offsetX: -5
      offsetY: -2
      advance: 7
      channel: 0
      kerning: 
    - index: 207
      x: 229
      y: 120
      width: 15
      height: 25
      offsetX: -4
      offsetY: -1
      advance: 7
      channel: 0
      kerning: 
    - index: 208
      x: 151
      y: 305
      width: 26
      height: 20
      offsetX: -3
      offsetY: 4
      advance: 21
      channel: 0
      kerning: 
    - index: 209
      x: 116
      y: 60
      width: 25
      height: 26
      offsetX: -2
      offsetY: -2
      advance: 21
      channel: 0
      kerning: 
    - index: 210
      x: 174
      y: 60
      width: 25
      height: 26
      offsetX: -2
      offsetY: -2
      advance: 21
      channel: 0
      kerning: 
    - index: 211
      x: 87
      y: 60
      width: 25
      height: 26
      offsetX: -2
      offsetY: -2
      advance: 21
      channel: 0
      kerning: 
    - index: 212
      x: 58
      y: 60
      width: 25
      height: 26
      offsetX: -2
      offsetY: -2
      advance: 21
      channel: 0
      kerning: 
    - index: 213
      x: 178
      y: 30
      width: 25
      height: 26
      offsetX: -2
      offsetY: -2
      advance: 21
      channel: 0
      kerning: 
    - index: 214
      x: 0
      y: 151
      width: 25
      height: 25
      offsetX: -2
      offsetY: -1
      advance: 21
      channel: 0
      kerning: 
    - index: 216
      x: 203
      y: 353
      width: 25
      height: 20
      offsetX: -2
      offsetY: 4
      advance: 21
      channel: 0
      kerning: 
    - index: 217
      x: 87
      y: 90
      width: 25
      height: 26
      offsetX: -2
      offsetY: -2
      advance: 21
      channel: 0
      kerning: 
    - index: 218
      x: 203
      y: 60
      width: 25
      height: 26
      offsetX: -2
      offsetY: -2
      advance: 21
      channel: 0
      kerning: 
    - index: 219
      x: 58
      y: 90
      width: 25
      height: 26
      offsetX: -2
      offsetY: -2
      advance: 21
      channel: 0
      kerning: 
    - index: 220
      x: 58
      y: 150
      width: 25
      height: 25
      offsetX: -2
      offsetY: -1
      advance: 21
      channel: 0
      kerning: 
    - index: 221
      x: 90
      y: 30
      width: 26
      height: 26
      offsetX: -3
      offsetY: -2
      advance: 19
      channel: 0
      kerning: 
    - index: 222
      x: 0
      y: 259
      width: 25
      height: 21
      offsetX: -2
      offsetY: 3
      advance: 21
      channel: 0
      kerning: 
    - index: 223
      x: 0
      y: 309
      width: 44
      height: 20
      offsetX: -1
      offsetY: 4
      advance: 42
      channel: 0
      kerning: 
    - index: 224
      x: 30
      y: 30
      width: 26
      height: 26
      offsetX: -3
      offsetY: -2
      advance: 19
      channel: 0
      kerning: 
    - index: 225
      x: 134
      y: 0
      width: 26
      height: 26
      offsetX: -3
      offsetY: -2
      advance: 19
      channel: 0
      kerning: 
    - index: 226
      x: 104
      y: 0
      width: 26
      height: 26
      offsetX: -3
      offsetY: -2
      advance: 19
      channel: 0
      kerning: 
    - index: 227
      x: 224
      y: 0
      width: 26
      height: 26
      offsetX: -3
      offsetY: -2
      advance: 19
      channel: 0
      kerning: 
    - index: 228
      x: 139
      y: 120
      width: 26
      height: 25
      offsetX: -3
      offsetY: -1
      advance: 19
      channel: 0
      kerning: 
    - index: 229
      x: 0
      y: 31
      width: 26
      height: 26
      offsetX: -3
      offsetY: -2
      advance: 19
      channel: 0
      kerning: 
    - index: 230
      x: 48
      y: 309
      width: 31
      height: 20
      offsetX: -3
      offsetY: 4
      advance: 26
      channel: 0
      kerning: 
    - index: 231
      x: 0
      y: 180
      width: 24
      height: 25
      offsetX: -1
      offsetY: 4
      advance: 21
      channel: 0
      kerning: 
    - index: 232
      x: 174
      y: 90
      width: 25
      height: 26
      offsetX: -1
      offsetY: -2
      advance: 21
      channel: 0
      kerning: 
    - index: 233
      x: 145
      y: 60
      width: 25
      height: 26
      offsetX: -1
      offsetY: -2
      advance: 21
      channel: 0
      kerning: 
    - index: 234
      x: 203
      y: 90
      width: 25
      height: 26
      offsetX: -1
      offsetY: -2
      advance: 21
      channel: 0
      kerning: 
    - index: 235
      x: 116
      y: 150
      width: 25
      height: 25
      offsetX: -1
      offsetY: -1
      advance: 21
      channel: 0
      kerning: 
    - index: 236
      x: 92
      y: 120
      width: 13
      height: 26
      offsetX: -4
      offsetY: -2
      advance: 7
      channel: 0
      kerning: 
    - index: 237
      x: 58
      y: 120
      width: 13
      height: 26
      offsetX: -2
      offsetY: -2
      advance: 7
      channel: 0
      kerning: 
    - index: 238
      x: 236
      y: 30
      width: 16
      height: 26
      offsetX: -5
      offsetY: -2
      advance: 7
      channel: 0
      kerning: 
    - index: 239
      x: 230
      y: 149
      width: 15
      height: 25
      offsetX: -4
      offsetY: -1
      advance: 7
      channel: 0
      kerning: 
    - index: 240
      x: 211
      y: 303
      width: 26
      height: 20
      offsetX: -3
      offsetY: 4
      advance: 21
      channel: 0
      kerning: 
    - index: 241
      x: 0
      y: 121
      width: 25
      height: 26
      offsetX: -2
      offsetY: -2
      advance: 21
      channel: 0
      kerning: 
    - index: 242
      x: 29
      y: 121
      width: 25
      height: 26
      offsetX: -2
      offsetY: -2
      advance: 21
      channel: 0
      kerning: 
    - index: 243
      x: 145
      y: 90
      width: 25
      height: 26
      offsetX: -2
      offsetY: -2
      advance: 21
      channel: 0
      kerning: 
    - index: 244
      x: 120
      y: 30
      width: 25
      height: 26
      offsetX: -2
      offsetY: -2
      advance: 21
      channel: 0
      kerning: 
    - index: 245
      x: 29
      y: 91
      width: 25
      height: 26
      offsetX: -2
      offsetY: -2
      advance: 21
      channel: 0
      kerning: 
    - index: 246
      x: 87
      y: 150
      width: 25
      height: 25
      offsetX: -2
      offsetY: -1
      advance: 21
      channel: 0
      kerning: 
    - index: 248
      x: 145
      y: 381
      width: 25
      height: 20
      offsetX: -2
      offsetY: 4
      advance: 21
      channel: 0
      kerning: 
    - index: 249
      x: 149
      y: 30
      width: 25
      height: 26
      offsetX: -2
      offsetY: -2
      advance: 21
      channel: 0
      kerning: 
    - index: 250
      x: 207
      y: 30
      width: 25
      height: 26
      offsetX: -2
      offsetY: -2
      advance: 21
      channel: 0
      kerning: 
    - index: 251
      x: 29
      y: 61
      width: 25
      height: 26
      offsetX: -2
      offsetY: -2
      advance: 21
      channel: 0
      kerning: 
    - index: 252
      x: 145
      y: 149
      width: 25
      height: 25
      offsetX: -2
      offsetY: -1
      advance: 21
      channel: 0
      kerning: 
    - index: 253
      x: 74
      y: 0
      width: 26
      height: 26
      offsetX: -3
      offsetY: -2
      advance: 19
      channel: 0
      kerning: 
    - index: 254
      x: 0
      y: 284
      width: 25
      height: 21
      offsetX: -2
      offsetY: 3
      advance: 21
      channel: 0
      kerning: 
    - index: 255
      x: 199
      y: 120
      width: 26
      height: 25
      offsetX: -3
      offsetY: -1
      advance: 19
      channel: 0
      kerning: 
  mSpacingX: 0
  mSpacingY: 0
  mAtlas: {fileID: 11400000, guid: 2f2473f73b9ca724f9080d6d76009ea2, type: 2}
  mReplacement: {fileID: 0}
  mPixelSize: 1
  mSymbols: []
  mDynamicFont: {fileID: 0}
  mDynamicFontSize: 16
  mDynamicFontStyle: 0
  mDynamicFontOffset: 0
--- !u!1002 &11400001
EditorExtensionImpl:
  serializedVersion: 6
--- !u!1001 &100100000
Prefab:
  m_ObjectHideFlags: 1
  serializedVersion: 2
  m_Modification:
    m_TransformParent: {fileID: 0}
    m_Modifications: []
    m_RemovedComponents: []
  m_ParentPrefab: {fileID: 0}
  m_RootGameObject: {fileID: 100000}
  m_IsPrefabParent: 1
  m_IsExploded: 1
--- !u!1002 &100100001
EditorExtensionImpl:
  serializedVersion: 6
