%YAML 1.1
%TAG !u! tag:unity3d.com,2011:
--- !u!21 &2100000
Material:
  serializedVersion: 3
  m_ObjectHideFlags: 0
  m_PrefabParentObject: {fileID: 0}
  m_PrefabInternal: {fileID: 0}
  m_Name: FakeSurfaceAndBottom4
  m_Shader: {fileID: 4800000, guid: 356a9c3b78d27354981e7da54f3a0ba4, type: 3}
  m_ShaderKeywords: []
  m_CustomRenderQueue: -1
  m_SavedProperties:
    serializedVersion: 2
    m_TexEnvs:
      data:
        first:
          name: _MainTex
        second:
          m_Texture: {fileID: 2800000, guid: 84bf3794639f72a4c9ee3cbaf60344b7, type: 3}
          m_Scale: {x: 1, y: 1}
          m_Offset: {x: 0, y: 0}
      data:
        first:
          name: _Cube
        second:
          m_Texture: {fileID: 8900000, guid: ab6301d4d70bdd34988cf73f908054f4, type: 2}
          m_Scale: {x: 1, y: 1}
          m_Offset: {x: 0, y: 0}
      data:
        first:
          name: _BottomTex
        second:
          m_Texture: {fileID: 2800000, guid: 62af9cce9c68a684bafae498a9d33780, type: 3}
          m_Scale: {x: 1, y: 1}
          m_Offset: {x: 0, y: 0}
      data:
        first:
          name: _SpeedMask
        second:
          m_Texture: {fileID: 2800000, guid: 8ef5b3073dc591f498ce8c0e935e68ed, type: 3}
          m_Scale: {x: 1, y: 1}
          m_Offset: {x: 0, y: 0}
      data:
        first:
          name: _FoamTex
        second:
          m_Texture: {fileID: 2800000, guid: 0c2ab2a1c4018714989a955420ef3da3, type: 3}
          m_Scale: {x: 2, y: 5}
          m_Offset: {x: 0, y: 0}
      data:
        first:
          name: _Tex0
        second:
          m_Texture: {fileID: 2800000, guid: 3e3810b72e3255b4ea0ad31eeb9bed52, type: 3}
          m_Scale: {x: 1, y: 1}
          m_Offset: {x: 0, y: 0}
    m_Floats:
      data:
        first:
          name: _WaterSpeed
        second: .300000012
      data:
        first:
          name: _FakeDepth
        second: .0199999996
      data:
        first:
          name: _WaveFreq
        second: 33
      data:
        first:
          name: _WaveAmp
        second: 1
    m_Colors:
      data:
        first:
          name: _Color
        second: {r: 1, g: 1, b: 1, a: 1}
      data:
        first:
          name: _StonePos
        second: {r: 36.8795891, g: 36.8795891, b: 36.8795891, a: 1}
      data:
        first:
          name: _BallPos
        second: {r: 881.695129, g: 18.6474895, b: 1898.56604, a: 1}
      data:
        first:
          name: _xBallPos
        second: {r: 0, g: 0, b: 0, a: 1}
--- !u!1002 &2100001
EditorExtensionImpl:
  serializedVersion: 6
