%YAML 1.1
%TAG !u! tag:unity3d.com,2011:
--- !u!114 &11400000
MonoBehaviour:
  m_ObjectHideFlags: 0
  m_PrefabParentObject: {fileID: 0}
  m_PrefabInternal: {fileID: 0}
  m_GameObject: {fileID: 0}
  m_Enabled: 1
  m_EditorHideFlags: 0
  m_Script: {fileID: -1149339567, guid: e0781e12b13132b45bf09c20fcd34d12, type: 3}
  m_Name: BTEditorWindowState
  m_EditorClassIdentifier: 
  Version: 20
  HolderNodes:
  - AssetPath: .currentai
    BehaviorTreeName: (No AI Selected)
    BehaviorTreeID: 114
    LastUpdate: 635447551972159372
    LastModified: 635447417464795990
    Errored: 0
  - AssetPath: .createxml
    BehaviorTreeName: Create New Behavior Tree
    BehaviorTreeID: 0
    LastUpdate: 0
    LastModified: 0
    Errored: 0
  - AssetPath: Assets/AI/BehaviorTrees/GateBehaviorNetwork.asset
    BehaviorTreeName: GateBehaviorNetwork
    BehaviorTreeID: 0
    LastUpdate: 0
    LastModified: 0
    Errored: 0
  - AssetPath: Assets/AI/BehaviorTrees/AI_BT_Soldier.asset
    BehaviorTreeName: AI_BT_Soldier
    BehaviorTreeID: 114
    LastUpdate: 635447551972159372
    LastModified: 635447417464795990
    Errored: 0
  - AssetPath: Assets/AI/BehaviorTrees/SoldierBT.asset
    BehaviorTreeName: SoldierBT
    BehaviorTreeID: 0
    LastUpdate: 0
    LastModified: 0
    Errored: 0
  - AssetPath: Assets/AI/BehaviorTrees/CityNetworkBehavior.asset
    BehaviorTreeName: CityNetworkBehavior
    BehaviorTreeID: 0
    LastUpdate: 0
    LastModified: 0
    Errored: 0
  - AssetPath: Assets/AI/BehaviorTrees/FieldNetworkBehavior.asset
    BehaviorTreeName: FieldNetworkBehavior
    BehaviorTreeID: 0
    LastUpdate: 0
    LastModified: 0
    Errored: 0
  TreeState:
    _branchRepo:
    - _fields: []
      _type: 0
      _stateIndex: 0
      _parent: 0
      _lastUpdate: 0
      _children: 
      _variables: 
      _focused: 0
    - _fields: []
      _type: 0
      _stateIndex: 0
      _parent: 0
      _lastUpdate: 0
      _children: 
      _variables: 
      _focused: 0
    - _fields:
      - _field: name
        _currentValue: move
        _recordChange: 1
        _changed: 0
      - _field: repeatuntil
        _currentValue: 
        _recordChange: 1
        _changed: 0
      - _field: pausewhenhit
        _currentValue: False
        _recordChange: 0
        _changed: 0
      - _field: startingpriority
        _currentValue: 
        _recordChange: 1
        _changed: 0
      - _field: runningpriority
        _currentValue: 
        _recordChange: 1
        _changed: 0
      - _field: priority
        _currentValue: 
        _recordChange: 1
        _changed: 0
      - _field: weight
        _currentValue: 
        _recordChange: 1
        _changed: 0
      - _field: movetarget
        _currentValue: attack_target
        _recordChange: 1
        _changed: 0
      - _field: movespeed
        _currentValue: speed_run
        _recordChange: 1
        _changed: 0
      - _field: facetarget
        _currentValue: attack_target
        _recordChange: 1
        _changed: 0
      - _field: turnspeed
        _currentValue: 
        _recordChange: 1
        _changed: 0
      - _field: closeenoughdistance
        _currentValue: 
        _recordChange: 1
        _changed: 0
      - _field: closeenoughangle
        _currentValue: 
        _recordChange: 1
        _changed: 0
      _type: 13
      _stateIndex: 2
      _parent: 4
      _lastUpdate: 0
      _children: 
      _variables: 
      _focused: 0
    - _fields:
      - _field: name
        _currentValue: animspeed
        _recordChange: 1
        _changed: 0
      - _field: repeatuntil
        _currentValue: running
        _recordChange: 1
        _changed: 0
      - _field: pausewhenhit
        _currentValue: False
        _recordChange: 0
        _changed: 0
      - _field: startingpriority
        _currentValue: 
        _recordChange: 1
        _changed: 0
      - _field: runningpriority
        _currentValue: 
        _recordChange: 1
        _changed: 0
      - _field: priority
        _currentValue: 
        _recordChange: 1
        _changed: 0
      - _field: weight
        _currentValue: 
        _recordChange: 1
        _changed: 0
      - _field: parametername
        _currentValue: AnimSpeed
        _recordChange: 1
        _changed: 0
      - _field: valueexpression
        _currentValue: 1.0
        _recordChange: 1
        _changed: 0
      - _field: damptime
        _currentValue: 0.5
        _recordChange: 1
        _changed: 0
      - _field: parametertype
        _currentValue: float
        _recordChange: 1
        _changed: 0
      _type: 12
      _stateIndex: 3
      _parent: 4
      _lastUpdate: 0
      _children: 
      _variables: 
      _focused: 0
    - _fields:
      - _field: name
        _currentValue: parallel
        _recordChange: 1
        _changed: 0
      - _field: open
        _currentValue: True
        _recordChange: 0
        _changed: 0
      - _field: repeatuntil
        _currentValue: 
        _recordChange: 1
        _changed: 0
      - _field: pausewhenhit
        _currentValue: False
        _recordChange: 0
        _changed: 0
      - _field: startingpriority
        _currentValue: 
        _recordChange: 1
        _changed: 0
      - _field: runningpriority
        _currentValue: 
        _recordChange: 1
        _changed: 0
      - _field: priority
        _currentValue: 
        _recordChange: 1
        _changed: 0
      - _field: weight
        _currentValue: 
        _recordChange: 1
        _changed: 0
      - _field: fail
        _currentValue: all
        _recordChange: 1
        _changed: 0
      - _field: succeed
        _currentValue: all
        _recordChange: 1
        _changed: 0
      - _field: tiebreaker
        _currentValue: fail
        _recordChange: 1
        _changed: 0
      _type: 14
      _stateIndex: 4
      _parent: 5
      _lastUpdate: 635447551758717163
      _children: 0300000002000000
      _variables: 
      _focused: 0
    - _fields:
      - _field: name
        _currentValue: run
        _recordChange: 1
        _changed: 0
      - _field: open
        _currentValue: True
        _recordChange: 0
        _changed: 0
      - _field: repeatuntil
        _currentValue: running
        _recordChange: 1
        _changed: 0
      - _field: pausewhenhit
        _currentValue: False
        _recordChange: 0
        _changed: 0
      - _field: startingpriority
        _currentValue: 
        _recordChange: 1
        _changed: 0
      - _field: runningpriority
        _currentValue: 
        _recordChange: 1
        _changed: 0
      - _field: priority
        _currentValue: 
        _recordChange: 1
        _changed: 0
      - _field: weight
        _currentValue: 
        _recordChange: 1
        _changed: 0
      - _field: constraint
        _currentValue: movestyle=="run"
        _recordChange: 1
        _changed: 0
      _type: 5
      _stateIndex: 5
      _parent: 14
      _lastUpdate: 635447551758717163
      _children: 04000000
      _variables: 
      _focused: 0
    - _fields:
      - _field: name
        _currentValue: move
        _recordChange: 1
        _changed: 0
      - _field: repeatuntil
        _currentValue: 
        _recordChange: 1
        _changed: 0
      - _field: pausewhenhit
        _currentValue: False
        _recordChange: 0
        _changed: 0
      - _field: startingpriority
        _currentValue: 
        _recordChange: 1
        _changed: 0
      - _field: runningpriority
        _currentValue: 
        _recordChange: 1
        _changed: 0
      - _field: priority
        _currentValue: 
        _recordChange: 1
        _changed: 0
      - _field: weight
        _currentValue: 
        _recordChange: 1
        _changed: 0
      - _field: movetarget
        _currentValue: attack_target
        _recordChange: 1
        _changed: 0
      - _field: movespeed
        _currentValue: speed_walk
        _recordChange: 1
        _changed: 0
      - _field: facetarget
        _currentValue: attack_target
        _recordChange: 1
        _changed: 0
      - _field: turnspeed
        _currentValue: 
        _recordChange: 1
        _changed: 0
      - _field: closeenoughdistance
        _currentValue: 
        _recordChange: 1
        _changed: 0
      - _field: closeenoughangle
        _currentValue: 
        _recordChange: 1
        _changed: 0
      _type: 13
      _stateIndex: 6
      _parent: 8
      _lastUpdate: 0
      _children: 
      _variables: 
      _focused: 0
    - _fields:
      - _field: name
        _currentValue: animspeed
        _recordChange: 1
        _changed: 0
      - _field: repeatuntil
        _currentValue: running
        _recordChange: 1
        _changed: 0
      - _field: pausewhenhit
        _currentValue: False
        _recordChange: 0
        _changed: 0
      - _field: startingpriority
        _currentValue: 
        _recordChange: 1
        _changed: 0
      - _field: runningpriority
        _currentValue: 
        _recordChange: 1
        _changed: 0
      - _field: priority
        _currentValue: 
        _recordChange: 1
        _changed: 0
      - _field: weight
        _currentValue: 
        _recordChange: 1
        _changed: 0
      - _field: parametername
        _currentValue: AnimSpeed
        _recordChange: 1
        _changed: 0
      - _field: valueexpression
        _currentValue: 0.5
        _recordChange: 1
        _changed: 0
      - _field: damptime
        _currentValue: 0.5
        _recordChange: 1
        _changed: 0
      - _field: parametertype
        _currentValue: float
        _recordChange: 1
        _changed: 0
      _type: 12
      _stateIndex: 7
      _parent: 8
      _lastUpdate: 0
      _children: 
      _variables: 
      _focused: 0
    - _fields:
      - _field: name
        _currentValue: parallel
        _recordChange: 1
        _changed: 0
      - _field: open
        _currentValue: True
        _recordChange: 0
        _changed: 0
      - _field: repeatuntil
        _currentValue: 
        _recordChange: 1
        _changed: 0
      - _field: pausewhenhit
        _currentValue: False
        _recordChange: 0
        _changed: 0
      - _field: startingpriority
        _currentValue: 
        _recordChange: 1
        _changed: 0
      - _field: runningpriority
        _currentValue: 
        _recordChange: 1
        _changed: 0
      - _field: priority
        _currentValue: 
        _recordChange: 1
        _changed: 0
      - _field: weight
        _currentValue: 
        _recordChange: 1
        _changed: 0
      - _field: fail
        _currentValue: all
        _recordChange: 1
        _changed: 0
      - _field: succeed
        _currentValue: all
        _recordChange: 1
        _changed: 0
      - _field: tiebreaker
        _currentValue: fail
        _recordChange: 1
        _changed: 0
      _type: 14
      _stateIndex: 8
      _parent: 9
      _lastUpdate: 635447551758717163
      _children: 0700000006000000
      _variables: 
      _focused: 0
    - _fields:
      - _field: name
        _currentValue: walk
        _recordChange: 1
        _changed: 0
      - _field: open
        _currentValue: True
        _recordChange: 0
        _changed: 0
      - _field: repeatuntil
        _currentValue: running
        _recordChange: 1
        _changed: 0
      - _field: pausewhenhit
        _currentValue: False
        _recordChange: 0
        _changed: 0
      - _field: startingpriority
        _currentValue: 
        _recordChange: 1
        _changed: 0
      - _field: runningpriority
        _currentValue: 
        _recordChange: 1
        _changed: 0
      - _field: priority
        _currentValue: 
        _recordChange: 1
        _changed: 0
      - _field: weight
        _currentValue: 
        _recordChange: 1
        _changed: 0
      - _field: constraint
        _currentValue: movestyle=="walk"
        _recordChange: 1
        _changed: 0
      _type: 5
      _stateIndex: 9
      _parent: 14
      _lastUpdate: 635447551758717163
      _children: 08000000
      _variables: 
      _focused: 0
    - _fields:
      - _field: name
        _currentValue: move
        _recordChange: 1
        _changed: 0
      - _field: repeatuntil
        _currentValue: running
        _recordChange: 1
        _changed: 0
      - _field: pausewhenhit
        _currentValue: False
        _recordChange: 0
        _changed: 0
      - _field: startingpriority
        _currentValue: 
        _recordChange: 1
        _changed: 0
      - _field: runningpriority
        _currentValue: 
        _recordChange: 1
        _changed: 0
      - _field: priority
        _currentValue: 
        _recordChange: 1
        _changed: 0
      - _field: weight
        _currentValue: 
        _recordChange: 1
        _changed: 0
      - _field: movetarget
        _currentValue: 
        _recordChange: 1
        _changed: 0
      - _field: movespeed
        _currentValue: 
        _recordChange: 1
        _changed: 0
      - _field: facetarget
        _currentValue: attack_target
        _recordChange: 1
        _changed: 0
      - _field: turnspeed
        _currentValue: 
        _recordChange: 1
        _changed: 0
      - _field: closeenoughdistance
        _currentValue: 
        _recordChange: 1
        _changed: 0
      - _field: closeenoughangle
        _currentValue: 
        _recordChange: 1
        _changed: 0
      _type: 13
      _stateIndex: 10
      _parent: 12
      _lastUpdate: 0
      _children: 
      _variables: 
      _focused: 0
    - _fields:
      - _field: name
        _currentValue: animspeed
        _recordChange: 1
        _changed: 0
      - _field: repeatuntil
        _currentValue: running
        _recordChange: 1
        _changed: 0
      - _field: pausewhenhit
        _currentValue: False
        _recordChange: 0
        _changed: 0
      - _field: startingpriority
        _currentValue: 
        _recordChange: 1
        _changed: 0
      - _field: runningpriority
        _currentValue: 
        _recordChange: 1
        _changed: 0
      - _field: priority
        _currentValue: 
        _recordChange: 1
        _changed: 0
      - _field: weight
        _currentValue: 
        _recordChange: 1
        _changed: 0
      - _field: parametername
        _currentValue: AnimSpeed
        _recordChange: 1
        _changed: 0
      - _field: valueexpression
        _currentValue: 0
        _recordChange: 1
        _changed: 0
      - _field: damptime
        _currentValue: 0.5
        _recordChange: 1
        _changed: 0
      - _field: parametertype
        _currentValue: float
        _recordChange: 1
        _changed: 0
      _type: 12
      _stateIndex: 11
      _parent: 12
      _lastUpdate: 0
      _children: 
      _variables: 
      _focused: 0
    - _fields:
      - _field: name
        _currentValue: parallel
        _recordChange: 1
        _changed: 0
      - _field: open
        _currentValue: True
        _recordChange: 0
        _changed: 0
      - _field: repeatuntil
        _currentValue: 
        _recordChange: 1
        _changed: 0
      - _field: pausewhenhit
        _currentValue: False
        _recordChange: 0
        _changed: 0
      - _field: startingpriority
        _currentValue: 
        _recordChange: 1
        _changed: 0
      - _field: runningpriority
        _currentValue: 
        _recordChange: 1
        _changed: 0
      - _field: priority
        _currentValue: 
        _recordChange: 1
        _changed: 0
      - _field: weight
        _currentValue: 
        _recordChange: 1
        _changed: 0
      - _field: fail
        _currentValue: all
        _recordChange: 1
        _changed: 0
      - _field: succeed
        _currentValue: all
        _recordChange: 1
        _changed: 0
      - _field: tiebreaker
        _currentValue: fail
        _recordChange: 1
        _changed: 0
      _type: 14
      _stateIndex: 12
      _parent: 13
      _lastUpdate: 635447551758717163
      _children: 0b0000000a000000
      _variables: 
      _focused: 0
    - _fields:
      - _field: name
        _currentValue: still
        _recordChange: 1
        _changed: 0
      - _field: open
        _currentValue: True
        _recordChange: 0
        _changed: 0
      - _field: repeatuntil
        _currentValue: running
        _recordChange: 1
        _changed: 0
      - _field: pausewhenhit
        _currentValue: False
        _recordChange: 0
        _changed: 0
      - _field: startingpriority
        _currentValue: 
        _recordChange: 1
        _changed: 0
      - _field: runningpriority
        _currentValue: 
        _recordChange: 1
        _changed: 0
      - _field: priority
        _currentValue: 
        _recordChange: 1
        _changed: 0
      - _field: weight
        _currentValue: 
        _recordChange: 1
        _changed: 0
      - _field: constraint
        _currentValue: movestyle=="still"
        _recordChange: 1
        _changed: 0
      _type: 5
      _stateIndex: 13
      _parent: 14
      _lastUpdate: 635447551758717163
      _children: 0c000000
      _variables: 
      _focused: 0
    - _fields:
      - _field: name
        _currentValue: act on motion
        _recordChange: 1
        _changed: 0
      - _field: open
        _currentValue: True
        _recordChange: 0
        _changed: 0
      - _field: repeatuntil
        _currentValue: running
        _recordChange: 1
        _changed: 0
      - _field: pausewhenhit
        _currentValue: False
        _recordChange: 0
        _changed: 0
      - _field: startingpriority
        _currentValue: 
        _recordChange: 1
        _changed: 0
      - _field: runningpriority
        _currentValue: 
        _recordChange: 1
        _changed: 0
      - _field: priority
        _currentValue: 
        _recordChange: 1
        _changed: 0
      - _field: weight
        _currentValue: 
        _recordChange: 1
        _changed: 0
      - _field: fail
        _currentValue: all
        _recordChange: 1
        _changed: 0
      - _field: succeed
        _currentValue: all
        _recordChange: 1
        _changed: 0
      - _field: tiebreaker
        _currentValue: fail
        _recordChange: 1
        _changed: 0
      _type: 14
      _stateIndex: 14
      _parent: 47
      _lastUpdate: 635447551758717163
      _children: 0d0000000900000005000000
      _variables: 
      _focused: 0
    - _fields:
      - _field: name
        _currentValue: still
        _recordChange: 1
        _changed: 0
      - _field: repeatuntil
        _currentValue: 
        _recordChange: 1
        _changed: 0
      - _field: pausewhenhit
        _currentValue: False
        _recordChange: 0
        _changed: 0
      - _field: startingpriority
        _currentValue: 
        _recordChange: 1
        _changed: 0
      - _field: runningpriority
        _currentValue: 
        _recordChange: 1
        _changed: 0
      - _field: priority
        _currentValue: 
        _recordChange: 1
        _changed: 0
      - _field: weight
        _currentValue: 
        _recordChange: 1
        _changed: 0
      - _field: expression
        _currentValue: movestyle="still"
        _recordChange: 1
        _changed: 0
      - _field: returnvalue
        _currentValue: success
        _recordChange: 1
        _changed: 0
      _type: 8
      _stateIndex: 15
      _parent: 16
      _lastUpdate: 0
      _children: 
      _variables: 
      _focused: 0
    - _fields:
      - _field: name
        _currentValue: already close enough to target
        _recordChange: 1
        _changed: 0
      - _field: open
        _currentValue: True
        _recordChange: 0
        _changed: 0
      - _field: repeatuntil
        _currentValue: running
        _recordChange: 1
        _changed: 0
      - _field: pausewhenhit
        _currentValue: False
        _recordChange: 0
        _changed: 0
      - _field: startingpriority
        _currentValue: 
        _recordChange: 1
        _changed: 0
      - _field: runningpriority
        _currentValue: 
        _recordChange: 1
        _changed: 0
      - _field: priority
        _currentValue: 
        _recordChange: 1
        _changed: 0
      - _field: weight
        _currentValue: 
        _recordChange: 1
        _changed: 0
      - _field: constraint
        _currentValue: attack_target_curdst < attack_target_closedst
        _recordChange: 1
        _changed: 0
      _type: 5
      _stateIndex: 16
      _parent: 47
      _lastUpdate: 635447551758707163
      _children: 0f000000
      _variables: 
      _focused: 0
    - _fields:
      - _field: name
        _currentValue: still
        _recordChange: 1
        _changed: 0
      - _field: repeatuntil
        _currentValue: 
        _recordChange: 1
        _changed: 0
      - _field: pausewhenhit
        _currentValue: False
        _recordChange: 0
        _changed: 0
      - _field: startingpriority
        _currentValue: 
        _recordChange: 1
        _changed: 0
      - _field: runningpriority
        _currentValue: 
        _recordChange: 1
        _changed: 0
      - _field: priority
        _currentValue: 
        _recordChange: 1
        _changed: 0
      - _field: weight
        _currentValue: 
        _recordChange: 1
        _changed: 0
      - _field: expression
        _currentValue: movestyle="still"
        _recordChange: 1
        _changed: 0
      - _field: returnvalue
        _currentValue: success
        _recordChange: 1
        _changed: 0
      _type: 8
      _stateIndex: 17
      _parent: 19
      _lastUpdate: 0
      _children: 
      _variables: 
      _focused: 0
    - _fields:
      - _field: name
        _currentValue: stance
        _recordChange: 1
        _changed: 0
      - _field: repeatuntil
        _currentValue: running
        _recordChange: 1
        _changed: 0
      - _field: pausewhenhit
        _currentValue: False
        _recordChange: 0
        _changed: 0
      - _field: startingpriority
        _currentValue: 
        _recordChange: 1
        _changed: 0
      - _field: runningpriority
        _currentValue: 
        _recordChange: 1
        _changed: 0
      - _field: priority
        _currentValue: 
        _recordChange: 1
        _changed: 0
      - _field: weight
        _currentValue: 
        _recordChange: 1
        _changed: 0
      - _field: parametername
        _currentValue: Stance
        _recordChange: 1
        _changed: 0
      - _field: valueexpression
        _currentValue: 1
        _recordChange: 1
        _changed: 0
      - _field: damptime
        _currentValue: 0.4
        _recordChange: 1
        _changed: 0
      - _field: parametertype
        _currentValue: float
        _recordChange: 1
        _changed: 0
      _type: 12
      _stateIndex: 18
      _parent: 19
      _lastUpdate: 0
      _children: 
      _variables: 
      _focused: 0
    - _fields:
      - _field: name
        _currentValue: parallel
        _recordChange: 1
        _changed: 0
      - _field: open
        _currentValue: True
        _recordChange: 0
        _changed: 0
      - _field: repeatuntil
        _currentValue: 
        _recordChange: 1
        _changed: 0
      - _field: pausewhenhit
        _currentValue: False
        _recordChange: 0
        _changed: 0
      - _field: startingpriority
        _currentValue: 
        _recordChange: 1
        _changed: 0
      - _field: runningpriority
        _currentValue: 
        _recordChange: 1
        _changed: 0
      - _field: priority
        _currentValue: 
        _recordChange: 1
        _changed: 0
      - _field: weight
        _currentValue: 
        _recordChange: 1
        _changed: 0
      - _field: fail
        _currentValue: all
        _recordChange: 1
        _changed: 0
      - _field: succeed
        _currentValue: all
        _recordChange: 1
        _changed: 0
      - _field: tiebreaker
        _currentValue: fail
        _recordChange: 1
        _changed: 0
      _type: 14
      _stateIndex: 19
      _parent: 20
      _lastUpdate: 635447551758707163
      _children: 1200000011000000
      _variables: 
      _focused: 0
    - _fields:
      - _field: name
        _currentValue: proneing
        _recordChange: 1
        _changed: 0
      - _field: open
        _currentValue: True
        _recordChange: 0
        _changed: 0
      - _field: repeatuntil
        _currentValue: running
        _recordChange: 1
        _changed: 0
      - _field: pausewhenhit
        _currentValue: False
        _recordChange: 0
        _changed: 0
      - _field: startingpriority
        _currentValue: 
        _recordChange: 1
        _changed: 0
      - _field: runningpriority
        _currentValue: 
        _recordChange: 1
        _changed: 0
      - _field: priority
        _currentValue: 
        _recordChange: 1
        _changed: 0
      - _field: weight
        _currentValue: 
        _recordChange: 1
        _changed: 0
      - _field: constraint
        _currentValue: stance=="prone"
        _recordChange: 1
        _changed: 0
      _type: 5
      _stateIndex: 20
      _parent: 38
      _lastUpdate: 635447551758707163
      _children: 13000000
      _variables: 
      _focused: 0
    - _fields:
      - _field: name
        _currentValue: still
        _recordChange: 1
        _changed: 0
      - _field: repeatuntil
        _currentValue: 
        _recordChange: 1
        _changed: 0
      - _field: pausewhenhit
        _currentValue: False
        _recordChange: 0
        _changed: 0
      - _field: startingpriority
        _currentValue: 
        _recordChange: 1
        _changed: 0
      - _field: runningpriority
        _currentValue: 
        _recordChange: 1
        _changed: 0
      - _field: priority
        _currentValue: 
        _recordChange: 1
        _changed: 0
      - _field: weight
        _currentValue: 
        _recordChange: 1
        _changed: 0
      - _field: expression
        _currentValue: movestyle="still"
        _recordChange: 1
        _changed: 0
      - _field: returnvalue
        _currentValue: success
        _recordChange: 1
        _changed: 0
      _type: 8
      _stateIndex: 21
      _parent: 23
      _lastUpdate: 0
      _children: 
      _variables: 
      _focused: 0
    - _fields:
      - _field: name
        _currentValue: stance
        _recordChange: 1
        _changed: 0
      - _field: repeatuntil
        _currentValue: running
        _recordChange: 1
        _changed: 0
      - _field: pausewhenhit
        _currentValue: False
        _recordChange: 0
        _changed: 0
      - _field: startingpriority
        _currentValue: 
        _recordChange: 1
        _changed: 0
      - _field: runningpriority
        _currentValue: 
        _recordChange: 1
        _changed: 0
      - _field: priority
        _currentValue: 
        _recordChange: 1
        _changed: 0
      - _field: weight
        _currentValue: 
        _recordChange: 1
        _changed: 0
      - _field: parametername
        _currentValue: Stance
        _recordChange: 1
        _changed: 0
      - _field: valueexpression
        _currentValue: 0.5
        _recordChange: 1
        _changed: 0
      - _field: damptime
        _currentValue: 0.4
        _recordChange: 1
        _changed: 0
      - _field: parametertype
        _currentValue: float
        _recordChange: 1
        _changed: 0
      _type: 12
      _stateIndex: 22
      _parent: 23
      _lastUpdate: 0
      _children: 
      _variables: 
      _focused: 0
    - _fields:
      - _field: name
        _currentValue: parallel
        _recordChange: 1
        _changed: 0
      - _field: open
        _currentValue: True
        _recordChange: 0
        _changed: 0
      - _field: repeatuntil
        _currentValue: 
        _recordChange: 1
        _changed: 0
      - _field: pausewhenhit
        _currentValue: False
        _recordChange: 0
        _changed: 0
      - _field: startingpriority
        _currentValue: 
        _recordChange: 1
        _changed: 0
      - _field: runningpriority
        _currentValue: 
        _recordChange: 1
        _changed: 0
      - _field: priority
        _currentValue: 
        _recordChange: 1
        _changed: 0
      - _field: weight
        _currentValue: 
        _recordChange: 1
        _changed: 0
      - _field: fail
        _currentValue: all
        _recordChange: 1
        _changed: 0
      - _field: succeed
        _currentValue: all
        _recordChange: 1
        _changed: 0
      - _field: tiebreaker
        _currentValue: fail
        _recordChange: 1
        _changed: 0
      _type: 14
      _stateIndex: 23
      _parent: 24
      _lastUpdate: 635447551758707163
      _children: 1600000015000000
      _variables: 
      _focused: 0
    - _fields:
      - _field: name
        _currentValue: crouching
        _recordChange: 1
        _changed: 0
      - _field: open
        _currentValue: True
        _recordChange: 0
        _changed: 0
      - _field: repeatuntil
        _currentValue: running
        _recordChange: 1
        _changed: 0
      - _field: pausewhenhit
        _currentValue: False
        _recordChange: 0
        _changed: 0
      - _field: startingpriority
        _currentValue: 
        _recordChange: 1
        _changed: 0
      - _field: runningpriority
        _currentValue: 
        _recordChange: 1
        _changed: 0
      - _field: priority
        _currentValue: 
        _recordChange: 1
        _changed: 0
      - _field: weight
        _currentValue: 
        _recordChange: 1
        _changed: 0
      - _field: constraint
        _currentValue: stance=="crouch"
        _recordChange: 1
        _changed: 0
      _type: 5
      _stateIndex: 24
      _parent: 38
      _lastUpdate: 635447551758707163
      _children: 17000000
      _variables: 
      _focused: 0
    - _fields:
      - _field: name
        _currentValue: timer
        _recordChange: 1
        _changed: 0
      - _field: pausewhenhit
        _currentValue: False
        _recordChange: 0
        _changed: 0
      - _field: startingpriority
        _currentValue: 
        _recordChange: 1
        _changed: 0
      - _field: runningpriority
        _currentValue: 
        _recordChange: 1
        _changed: 0
      - _field: priority
        _currentValue: 
        _recordChange: 1
        _changed: 0
      - _field: weight
        _currentValue: 
        _recordChange: 1
        _changed: 0
      - _field: waitforsec
        _currentValue: 3
        _recordChange: 1
        _changed: 0
      - _field: returnvalue
        _currentValue: success
        _recordChange: 1
        _changed: 0
      _type: 19
      _stateIndex: 25
      _parent: 27
      _lastUpdate: 0
      _children: 
      _variables: 
      _focused: 0
    - _fields:
      - _field: name
        _currentValue: run
        _recordChange: 1
        _changed: 0
      - _field: repeatuntil
        _currentValue: 
        _recordChange: 1
        _changed: 0
      - _field: pausewhenhit
        _currentValue: False
        _recordChange: 0
        _changed: 0
      - _field: startingpriority
        _currentValue: 
        _recordChange: 1
        _changed: 0
      - _field: runningpriority
        _currentValue: 
        _recordChange: 1
        _changed: 0
      - _field: priority
        _currentValue: 
        _recordChange: 1
        _changed: 0
      - _field: weight
        _currentValue: 
        _recordChange: 1
        _changed: 0
      - _field: expression
        _currentValue: movestyle="run"
        _recordChange: 1
        _changed: 0
      - _field: returnvalue
        _currentValue: success
        _recordChange: 1
        _changed: 0
      _type: 8
      _stateIndex: 26
      _parent: 27
      _lastUpdate: 0
      _children: 
      _variables: 
      _focused: 0
    - _fields:
      - _field: name
        _currentValue: run
        _recordChange: 1
        _changed: 0
      - _field: open
        _currentValue: True
        _recordChange: 0
        _changed: 0
      - _field: repeatuntil
        _currentValue: 
        _recordChange: 1
        _changed: 0
      - _field: pausewhenhit
        _currentValue: False
        _recordChange: 0
        _changed: 0
      - _field: startingpriority
        _currentValue: 
        _recordChange: 1
        _changed: 0
      - _field: runningpriority
        _currentValue: 
        _recordChange: 1
        _changed: 0
      - _field: priority
        _currentValue: 
        _recordChange: 1
        _changed: 0
      - _field: weight
        _currentValue: 0.4
        _recordChange: 1
        _changed: 0
      - _field: fail
        _currentValue: all
        _recordChange: 1
        _changed: 0
      - _field: succeed
        _currentValue: all
        _recordChange: 1
        _changed: 0
      - _field: tiebreaker
        _currentValue: fail
        _recordChange: 1
        _changed: 0
      _type: 14
      _stateIndex: 27
      _parent: 34
      _lastUpdate: 635447551758707163
      _children: 1a00000019000000
      _variables: 
      _focused: 0
    - _fields:
      - _field: name
        _currentValue: timer
        _recordChange: 1
        _changed: 0
      - _field: pausewhenhit
        _currentValue: False
        _recordChange: 0
        _changed: 0
      - _field: startingpriority
        _currentValue: 
        _recordChange: 1
        _changed: 0
      - _field: runningpriority
        _currentValue: 
        _recordChange: 1
        _changed: 0
      - _field: priority
        _currentValue: 
        _recordChange: 1
        _changed: 0
      - _field: weight
        _currentValue: 
        _recordChange: 1
        _changed: 0
      - _field: waitforsec
        _currentValue: 3
        _recordChange: 1
        _changed: 0
      - _field: returnvalue
        _currentValue: success
        _recordChange: 1
        _changed: 0
      _type: 19
      _stateIndex: 28
      _parent: 30
      _lastUpdate: 0
      _children: 
      _variables: 
      _focused: 0
    - _fields:
      - _field: name
        _currentValue: walk
        _recordChange: 1
        _changed: 0
      - _field: repeatuntil
        _currentValue: 
        _recordChange: 1
        _changed: 0
      - _field: pausewhenhit
        _currentValue: False
        _recordChange: 0
        _changed: 0
      - _field: startingpriority
        _currentValue: 
        _recordChange: 1
        _changed: 0
      - _field: runningpriority
        _currentValue: 
        _recordChange: 1
        _changed: 0
      - _field: priority
        _currentValue: 
        _recordChange: 1
        _changed: 0
      - _field: weight
        _currentValue: 
        _recordChange: 1
        _changed: 0
      - _field: expression
        _currentValue: movestyle="walk"
        _recordChange: 1
        _changed: 0
      - _field: returnvalue
        _currentValue: success
        _recordChange: 1
        _changed: 0
      _type: 8
      _stateIndex: 29
      _parent: 30
      _lastUpdate: 0
      _children: 
      _variables: 
      _focused: 0
    - _fields:
      - _field: name
        _currentValue: walk
        _recordChange: 1
        _changed: 0
      - _field: open
        _currentValue: True
        _recordChange: 0
        _changed: 0
      - _field: repeatuntil
        _currentValue: 
        _recordChange: 1
        _changed: 0
      - _field: pausewhenhit
        _currentValue: False
        _recordChange: 0
        _changed: 0
      - _field: startingpriority
        _currentValue: 
        _recordChange: 1
        _changed: 0
      - _field: runningpriority
        _currentValue: 
        _recordChange: 1
        _changed: 0
      - _field: priority
        _currentValue: 
        _recordChange: 1
        _changed: 0
      - _field: weight
        _currentValue: 1
        _recordChange: 1
        _changed: 0
      - _field: fail
        _currentValue: all
        _recordChange: 1
        _changed: 0
      - _field: succeed
        _currentValue: all
        _recordChange: 1
        _changed: 0
      - _field: tiebreaker
        _currentValue: fail
        _recordChange: 1
        _changed: 0
      _type: 14
      _stateIndex: 30
      _parent: 34
      _lastUpdate: 635447551758707163
      _children: 1d0000001c000000
      _variables: 
      _focused: 0
    - _fields:
      - _field: name
        _currentValue: timer
        _recordChange: 1
        _changed: 0
      - _field: pausewhenhit
        _currentValue: False
        _recordChange: 0
        _changed: 0
      - _field: startingpriority
        _currentValue: 
        _recordChange: 1
        _changed: 0
      - _field: runningpriority
        _currentValue: 
        _recordChange: 1
        _changed: 0
      - _field: priority
        _currentValue: 
        _recordChange: 1
        _changed: 0
      - _field: weight
        _currentValue: 
        _recordChange: 1
        _changed: 0
      - _field: waitforsec
        _currentValue: 3
        _recordChange: 1
        _changed: 0
      - _field: returnvalue
        _currentValue: success
        _recordChange: 1
        _changed: 0
      _type: 19
      _stateIndex: 31
      _parent: 33
      _lastUpdate: 0
      _children: 
      _variables: 
      _focused: 0
    - _fields:
      - _field: name
        _currentValue: still
        _recordChange: 1
        _changed: 0
      - _field: repeatuntil
        _currentValue: 
        _recordChange: 1
        _changed: 0
      - _field: pausewhenhit
        _currentValue: False
        _recordChange: 0
        _changed: 0
      - _field: startingpriority
        _currentValue: 
        _recordChange: 1
        _changed: 0
      - _field: runningpriority
        _currentValue: 
        _recordChange: 1
        _changed: 0
      - _field: priority
        _currentValue: 
        _recordChange: 1
        _changed: 0
      - _field: weight
        _currentValue: 
        _recordChange: 1
        _changed: 0
      - _field: expression
        _currentValue: movestyle="still"
        _recordChange: 1
        _changed: 0
      - _field: returnvalue
        _currentValue: success
        _recordChange: 1
        _changed: 0
      _type: 8
      _stateIndex: 32
      _parent: 33
      _lastUpdate: 0
      _children: 
      _variables: 
      _focused: 0
    - _fields:
      - _field: name
        _currentValue: still
        _recordChange: 1
        _changed: 0
      - _field: open
        _currentValue: True
        _recordChange: 0
        _changed: 0
      - _field: repeatuntil
        _currentValue: 
        _recordChange: 1
        _changed: 0
      - _field: pausewhenhit
        _currentValue: False
        _recordChange: 0
        _changed: 0
      - _field: startingpriority
        _currentValue: 
        _recordChange: 1
        _changed: 0
      - _field: runningpriority
        _currentValue: 
        _recordChange: 1
        _changed: 0
      - _field: priority
        _currentValue: 
        _recordChange: 1
        _changed: 0
      - _field: weight
        _currentValue: 0.3
        _recordChange: 1
        _changed: 0
      - _field: fail
        _currentValue: all
        _recordChange: 1
        _changed: 0
      - _field: succeed
        _currentValue: all
        _recordChange: 1
        _changed: 0
      - _field: tiebreaker
        _currentValue: fail
        _recordChange: 1
        _changed: 0
      _type: 14
      _stateIndex: 33
      _parent: 34
      _lastUpdate: 635447551758707163
      _children: 200000001f000000
      _variables: 
      _focused: 0
    - _fields:
      - _field: name
        _currentValue: random
        _recordChange: 1
        _changed: 0
      - _field: open
        _currentValue: True
        _recordChange: 0
        _changed: 0
      - _field: repeatuntil
        _currentValue: running
        _recordChange: 1
        _changed: 0
      - _field: pausewhenhit
        _currentValue: False
        _recordChange: 0
        _changed: 0
      - _field: startingpriority
        _currentValue: 
        _recordChange: 1
        _changed: 0
      - _field: runningpriority
        _currentValue: 
        _recordChange: 1
        _changed: 0
      - _field: priority
        _currentValue: 
        _recordChange: 1
        _changed: 0
      - _field: weight
        _currentValue: 
        _recordChange: 1
        _changed: 0
      _type: 16
      _stateIndex: 34
      _parent: 36
      _lastUpdate: 635447551758707163
      _children: 210000001e0000001b000000
      _variables: 
      _focused: 0
    - _fields:
      - _field: name
        _currentValue: stance
        _recordChange: 1
        _changed: 0
      - _field: repeatuntil
        _currentValue: running
        _recordChange: 1
        _changed: 0
      - _field: pausewhenhit
        _currentValue: False
        _recordChange: 0
        _changed: 0
      - _field: startingpriority
        _currentValue: 
        _recordChange: 1
        _changed: 0
      - _field: runningpriority
        _currentValue: 
        _recordChange: 1
        _changed: 0
      - _field: priority
        _currentValue: 
        _recordChange: 1
        _changed: 0
      - _field: weight
        _currentValue: 
        _recordChange: 1
        _changed: 0
      - _field: parametername
        _currentValue: Stance
        _recordChange: 1
        _changed: 0
      - _field: valueexpression
        _currentValue: 0
        _recordChange: 1
        _changed: 0
      - _field: damptime
        _currentValue: 0.4
        _recordChange: 1
        _changed: 0
      - _field: parametertype
        _currentValue: float
        _recordChange: 1
        _changed: 0
      _type: 12
      _stateIndex: 35
      _parent: 36
      _lastUpdate: 0
      _children: 
      _variables: 
      _focused: 0
    - _fields:
      - _field: name
        _currentValue: parallel
        _recordChange: 1
        _changed: 0
      - _field: open
        _currentValue: True
        _recordChange: 0
        _changed: 0
      - _field: repeatuntil
        _currentValue: 
        _recordChange: 1
        _changed: 0
      - _field: pausewhenhit
        _currentValue: False
        _recordChange: 0
        _changed: 0
      - _field: startingpriority
        _currentValue: 
        _recordChange: 1
        _changed: 0
      - _field: runningpriority
        _currentValue: 
        _recordChange: 1
        _changed: 0
      - _field: priority
        _currentValue: 
        _recordChange: 1
        _changed: 0
      - _field: weight
        _currentValue: 
        _recordChange: 1
        _changed: 0
      - _field: fail
        _currentValue: all
        _recordChange: 1
        _changed: 0
      - _field: succeed
        _currentValue: all
        _recordChange: 1
        _changed: 0
      - _field: tiebreaker
        _currentValue: fail
        _recordChange: 1
        _changed: 0
      _type: 14
      _stateIndex: 36
      _parent: 37
      _lastUpdate: 635447551758697162
      _children: 2300000022000000
      _variables: 
      _focused: 0
    - _fields:
      - _field: name
        _currentValue: standing
        _recordChange: 1
        _changed: 0
      - _field: open
        _currentValue: True
        _recordChange: 0
        _changed: 0
      - _field: repeatuntil
        _currentValue: running
        _recordChange: 1
        _changed: 0
      - _field: pausewhenhit
        _currentValue: False
        _recordChange: 0
        _changed: 0
      - _field: startingpriority
        _currentValue: 
        _recordChange: 1
        _changed: 0
      - _field: runningpriority
        _currentValue: 
        _recordChange: 1
        _changed: 0
      - _field: priority
        _currentValue: 
        _recordChange: 1
        _changed: 0
      - _field: weight
        _currentValue: 
        _recordChange: 1
        _changed: 0
      - _field: constraint
        _currentValue: stance=="stand"
        _recordChange: 1
        _changed: 0
      _type: 5
      _stateIndex: 37
      _parent: 38
      _lastUpdate: 635447551758697162
      _children: 24000000
      _variables: 
      _focused: 0
    - _fields:
      - _field: name
        _currentValue: act on stance
        _recordChange: 1
        _changed: 0
      - _field: open
        _currentValue: True
        _recordChange: 0
        _changed: 0
      - _field: repeatuntil
        _currentValue: running
        _recordChange: 1
        _changed: 0
      - _field: pausewhenhit
        _currentValue: False
        _recordChange: 0
        _changed: 0
      - _field: startingpriority
        _currentValue: 
        _recordChange: 1
        _changed: 0
      - _field: runningpriority
        _currentValue: 
        _recordChange: 1
        _changed: 0
      - _field: priority
        _currentValue: 
        _recordChange: 1
        _changed: 0
      - _field: weight
        _currentValue: 
        _recordChange: 1
        _changed: 0
      - _field: fail
        _currentValue: all
        _recordChange: 1
        _changed: 0
      - _field: succeed
        _currentValue: all
        _recordChange: 1
        _changed: 0
      - _field: tiebreaker
        _currentValue: fail
        _recordChange: 1
        _changed: 0
      _type: 14
      _stateIndex: 38
      _parent: 47
      _lastUpdate: 635447551758707163
      _children: 250000001800000014000000
      _variables: 
      _focused: 0
    - _fields:
      - _field: name
        _currentValue: timer
        _recordChange: 1
        _changed: 0
      - _field: pausewhenhit
        _currentValue: False
        _recordChange: 0
        _changed: 0
      - _field: startingpriority
        _currentValue: 
        _recordChange: 1
        _changed: 0
      - _field: runningpriority
        _currentValue: 
        _recordChange: 1
        _changed: 0
      - _field: priority
        _currentValue: 
        _recordChange: 1
        _changed: 0
      - _field: weight
        _currentValue: 
        _recordChange: 1
        _changed: 0
      - _field: waitforsec
        _currentValue: 4
        _recordChange: 1
        _changed: 0
      - _field: returnvalue
        _currentValue: success
        _recordChange: 1
        _changed: 0
      _type: 19
      _stateIndex: 39
      _parent: 44
      _lastUpdate: 0
      _children: 
      _variables: 
      _focused: 0
    - _fields:
      - _field: name
        _currentValue: prone
        _recordChange: 1
        _changed: 0
      - _field: repeatuntil
        _currentValue: 
        _recordChange: 1
        _changed: 0
      - _field: pausewhenhit
        _currentValue: False
        _recordChange: 0
        _changed: 0
      - _field: startingpriority
        _currentValue: 
        _recordChange: 1
        _changed: 0
      - _field: runningpriority
        _currentValue: 
        _recordChange: 1
        _changed: 0
      - _field: priority
        _currentValue: 
        _recordChange: 1
        _changed: 0
      - _field: weight
        _currentValue: 0.2
        _recordChange: 1
        _changed: 0
      - _field: expression
        _currentValue: stance="prone"
        _recordChange: 1
        _changed: 0
      - _field: returnvalue
        _currentValue: success
        _recordChange: 1
        _changed: 0
      _type: 8
      _stateIndex: 40
      _parent: 43
      _lastUpdate: 0
      _children: 
      _variables: 
      _focused: 0
    - _fields:
      - _field: name
        _currentValue: crouch
        _recordChange: 1
        _changed: 0
      - _field: repeatuntil
        _currentValue: 
        _recordChange: 1
        _changed: 0
      - _field: pausewhenhit
        _currentValue: False
        _recordChange: 0
        _changed: 0
      - _field: startingpriority
        _currentValue: 
        _recordChange: 1
        _changed: 0
      - _field: runningpriority
        _currentValue: 
        _recordChange: 1
        _changed: 0
      - _field: priority
        _currentValue: 
        _recordChange: 1
        _changed: 0
      - _field: weight
        _currentValue: 0.2
        _recordChange: 1
        _changed: 0
      - _field: expression
        _currentValue: stance="crouch"
        _recordChange: 1
        _changed: 0
      - _field: returnvalue
        _currentValue: success
        _recordChange: 1
        _changed: 0
      _type: 8
      _stateIndex: 41
      _parent: 43
      _lastUpdate: 0
      _children: 
      _variables: 
      _focused: 0
    - _fields:
      - _field: name
        _currentValue: stand
        _recordChange: 1
        _changed: 0
      - _field: repeatuntil
        _currentValue: 
        _recordChange: 1
        _changed: 0
      - _field: pausewhenhit
        _currentValue: False
        _recordChange: 0
        _changed: 0
      - _field: startingpriority
        _currentValue: 
        _recordChange: 1
        _changed: 0
      - _field: runningpriority
        _currentValue: 
        _recordChange: 1
        _changed: 0
      - _field: priority
        _currentValue: 
        _recordChange: 1
        _changed: 0
      - _field: weight
        _currentValue: 1
        _recordChange: 1
        _changed: 0
      - _field: expression
        _currentValue: stance="stand"
        _recordChange: 1
        _changed: 0
      - _field: returnvalue
        _currentValue: success
        _recordChange: 1
        _changed: 0
      _type: 8
      _stateIndex: 42
      _parent: 43
      _lastUpdate: 0
      _children: 
      _variables: 
      _focused: 0
    - _fields:
      - _field: name
        _currentValue: choice
        _recordChange: 1
        _changed: 0
      - _field: open
        _currentValue: True
        _recordChange: 0
        _changed: 0
      - _field: repeatuntil
        _currentValue: 
        _recordChange: 1
        _changed: 0
      - _field: pausewhenhit
        _currentValue: False
        _recordChange: 0
        _changed: 0
      - _field: startingpriority
        _currentValue: 
        _recordChange: 1
        _changed: 0
      - _field: runningpriority
        _currentValue: 
        _recordChange: 1
        _changed: 0
      - _field: priority
        _currentValue: 
        _recordChange: 1
        _changed: 0
      - _field: weight
        _currentValue: 
        _recordChange: 1
        _changed: 0
      _type: 16
      _stateIndex: 43
      _parent: 44
      _lastUpdate: 635447551758697162
      _children: 2a0000002900000028000000
      _variables: 
      _focused: 0
    - _fields:
      - _field: name
        _currentValue: choose stance
        _recordChange: 1
        _changed: 0
      - _field: open
        _currentValue: True
        _recordChange: 0
        _changed: 0
      - _field: repeatuntil
        _currentValue: running
        _recordChange: 1
        _changed: 0
      - _field: pausewhenhit
        _currentValue: False
        _recordChange: 0
        _changed: 0
      - _field: startingpriority
        _currentValue: 
        _recordChange: 1
        _changed: 0
      - _field: runningpriority
        _currentValue: 
        _recordChange: 1
        _changed: 0
      - _field: priority
        _currentValue: 
        _recordChange: 1
        _changed: 0
      - _field: weight
        _currentValue: 
        _recordChange: 1
        _changed: 0
      - _field: fail
        _currentValue: all
        _recordChange: 1
        _changed: 0
      - _field: succeed
        _currentValue: all
        _recordChange: 1
        _changed: 0
      - _field: tiebreaker
        _currentValue: fail
        _recordChange: 1
        _changed: 0
      _type: 14
      _stateIndex: 44
      _parent: 47
      _lastUpdate: 635447551758697162
      _children: 2b00000027000000
      _variables: 
      _focused: 0
    - _fields:
      - _field: name
        _currentValue: attacking = true
        _recordChange: 1
        _changed: 0
      - _field: repeatuntil
        _currentValue: 
        _recordChange: 1
        _changed: 0
      - _field: pausewhenhit
        _currentValue: False
        _recordChange: 0
        _changed: 0
      - _field: startingpriority
        _currentValue: 
        _recordChange: 1
        _changed: 0
      - _field: runningpriority
        _currentValue: 
        _recordChange: 1
        _changed: 0
      - _field: priority
        _currentValue: 
        _recordChange: 1
        _changed: 0
      - _field: weight
        _currentValue: 
        _recordChange: 1
        _changed: 0
      - _field: expression
        _currentValue: attack_attacking = true
        _recordChange: 1
        _changed: 0
      - _field: returnvalue
        _currentValue: success
        _recordChange: 1
        _changed: 0
      _type: 8
      _stateIndex: 45
      _parent: 47
      _lastUpdate: 0
      _children: 
      _variables: 
      _focused: 0
    - _fields:
      - _field: name
        _currentValue: hi = true
        _recordChange: 1
        _changed: 0
      - _field: repeatuntil
        _currentValue: 
        _recordChange: 1
        _changed: 0
      - _field: pausewhenhit
        _currentValue: False
        _recordChange: 0
        _changed: 0
      - _field: startingpriority
        _currentValue: 
        _recordChange: 1
        _changed: 0
      - _field: runningpriority
        _currentValue: 
        _recordChange: 1
        _changed: 0
      - _field: priority
        _currentValue: 
        _recordChange: 1
        _changed: 0
      - _field: weight
        _currentValue: 
        _recordChange: 1
        _changed: 0
      - _field: parametername
        _currentValue: Hi
        _recordChange: 1
        _changed: 0
      - _field: valueexpression
        _currentValue: true
        _recordChange: 1
        _changed: 0
      - _field: damptime
        _currentValue: 0
        _recordChange: 1
        _changed: 0
      - _field: parametertype
        _currentValue: boolean
        _recordChange: 1
        _changed: 0
      _type: 12
      _stateIndex: 46
      _parent: 47
      _lastUpdate: 0
      _children: 
      _variables: 
      _focused: 0
    - _fields:
      - _field: name
        _currentValue: parallel
        _recordChange: 1
        _changed: 0
      - _field: open
        _currentValue: True
        _recordChange: 0
        _changed: 0
      - _field: repeatuntil
        _currentValue: 
        _recordChange: 1
        _changed: 0
      - _field: pausewhenhit
        _currentValue: False
        _recordChange: 0
        _changed: 0
      - _field: startingpriority
        _currentValue: 
        _recordChange: 1
        _changed: 0
      - _field: runningpriority
        _currentValue: 
        _recordChange: 1
        _changed: 0
      - _field: priority
        _currentValue: 
        _recordChange: 1
        _changed: 0
      - _field: weight
        _currentValue: 
        _recordChange: 1
        _changed: 0
      - _field: fail
        _currentValue: all
        _recordChange: 1
        _changed: 0
      - _field: succeed
        _currentValue: all
        _recordChange: 1
        _changed: 0
      - _field: tiebreaker
        _currentValue: fail
        _recordChange: 1
        _changed: 0
      _type: 14
      _stateIndex: 47
      _parent: 48
      _lastUpdate: 635447551758707163
      _children: 2e0000002d0000002c00000026000000100000000e000000
      _variables: 
      _focused: 0
    - _fields:
      - _field: name
        _currentValue: can see player
        _recordChange: 1
        _changed: 0
      - _field: open
        _currentValue: True
        _recordChange: 0
        _changed: 0
      - _field: repeatuntil
        _currentValue: running
        _recordChange: 1
        _changed: 0
      - _field: pausewhenhit
        _currentValue: False
        _recordChange: 0
        _changed: 0
      - _field: startingpriority
        _currentValue: 
        _recordChange: 1
        _changed: 0
      - _field: runningpriority
        _currentValue: 
        _recordChange: 1
        _changed: 0
      - _field: priority
        _currentValue: 
        _recordChange: 1
        _changed: 0
      - _field: weight
        _currentValue: 
        _recordChange: 1
        _changed: 0
      - _field: constraint
        _currentValue: attack_target != null
        _recordChange: 1
        _changed: 0
      _type: 5
      _stateIndex: 48
      _parent: 113
      _lastUpdate: 635447551758697162
      _children: 2f000000
      _variables: 
      _focused: 0
    - _fields:
      - _field: name
        _currentValue: move
        _recordChange: 1
        _changed: 0
      - _field: repeatuntil
        _currentValue: 
        _recordChange: 1
        _changed: 0
      - _field: pausewhenhit
        _currentValue: False
        _recordChange: 0
        _changed: 0
      - _field: startingpriority
        _currentValue: 
        _recordChange: 1
        _changed: 0
      - _field: runningpriority
        _currentValue: 
        _recordChange: 1
        _changed: 0
      - _field: priority
        _currentValue: 
        _recordChange: 1
        _changed: 0
      - _field: weight
        _currentValue: 
        _recordChange: 1
        _changed: 0
      - _field: movetarget
        _currentValue: patrol_wptarget
        _recordChange: 1
        _changed: 0
      - _field: movespeed
        _currentValue: speed_walk
        _recordChange: 1
        _changed: 0
      - _field: facetarget
        _currentValue: 
        _recordChange: 1
        _changed: 0
      - _field: turnspeed
        _currentValue: 
        _recordChange: 1
        _changed: 0
      - _field: closeenoughdistance
        _currentValue: 
        _recordChange: 1
        _changed: 0
      - _field: closeenoughangle
        _currentValue: 
        _recordChange: 1
        _changed: 0
      _type: 13
      _stateIndex: 49
      _parent: 50
      _lastUpdate: 0
      _children: 
      _variables: 
      _focused: 0
    - _fields:
      - _field: name
        _currentValue: waypointpatrol
        _recordChange: 1
        _changed: 0
      - _field: open
        _currentValue: True
        _recordChange: 0
        _changed: 0
      - _field: repeatuntil
        _currentValue: 
        _recordChange: 1
        _changed: 0
      - _field: pausewhenhit
        _currentValue: False
        _recordChange: 0
        _changed: 0
      - _field: startingpriority
        _currentValue: 
        _recordChange: 1
        _changed: 0
      - _field: runningpriority
        _currentValue: 
        _recordChange: 1
        _changed: 0
      - _field: priority
        _currentValue: 
        _recordChange: 1
        _changed: 0
      - _field: weight
        _currentValue: 
        _recordChange: 1
        _changed: 0
      - _field: waypointactiontype
        _currentValue: patrol
        _recordChange: 1
        _changed: 0
      - _field: traversetype
        _currentValue: pingpong
        _recordChange: 1
        _changed: 0
      - _field: traverseorder
        _currentValue: forward
        _recordChange: 1
        _changed: 0
      - _field: waypointsetvariable
        _currentValue: patrol_wprig
        _recordChange: 1
        _changed: 0
      - _field: pathtargetvariable
        _currentValue: 
        _recordChange: 1
        _changed: 0
      - _field: movetargetvariable
        _currentValue: patrol_wptarget
        _recordChange: 1
        _changed: 0
      _type: 21
      _stateIndex: 50
      _parent: 53
      _lastUpdate: 635447551953528306
      _children: 31000000
      _variables: 
      _focused: 1
    - _fields:
      - _field: name
        _currentValue: walk
        _recordChange: 1
        _changed: 0
      - _field: repeatuntil
        _currentValue: running
        _recordChange: 1
        _changed: 0
      - _field: pausewhenhit
        _currentValue: False
        _recordChange: 0
        _changed: 0
      - _field: startingpriority
        _currentValue: 
        _recordChange: 1
        _changed: 0
      - _field: runningpriority
        _currentValue: 
        _recordChange: 1
        _changed: 0
      - _field: priority
        _currentValue: 
        _recordChange: 1
        _changed: 0
      - _field: weight
        _currentValue: 
        _recordChange: 1
        _changed: 0
      - _field: parametername
        _currentValue: AnimSpeed
        _recordChange: 1
        _changed: 0
      - _field: valueexpression
        _currentValue: 0.5
        _recordChange: 1
        _changed: 0
      - _field: damptime
        _currentValue: 0.2
        _recordChange: 1
        _changed: 0
      - _field: parametertype
        _currentValue: float
        _recordChange: 1
        _changed: 0
      _type: 12
      _stateIndex: 51
      _parent: 53
      _lastUpdate: 0
      _children: 
      _variables: 
      _focused: 0
    - _fields: []
      _type: 0
      _stateIndex: 0
      _parent: 0
      _lastUpdate: 0
      _children: 
      _variables: 
      _focused: 0
    - _fields:
      - _field: name
        _currentValue: parallel
        _recordChange: 1
        _changed: 0
      - _field: open
        _currentValue: True
        _recordChange: 0
        _changed: 0
      - _field: repeatuntil
        _currentValue: 
        _recordChange: 1
        _changed: 0
      - _field: pausewhenhit
        _currentValue: False
        _recordChange: 0
        _changed: 0
      - _field: startingpriority
        _currentValue: 
        _recordChange: 1
        _changed: 0
      - _field: runningpriority
        _currentValue: 
        _recordChange: 1
        _changed: 0
      - _field: priority
        _currentValue: 
        _recordChange: 1
        _changed: 0
      - _field: weight
        _currentValue: 
        _recordChange: 1
        _changed: 0
      - _field: fail
        _currentValue: any
        _recordChange: 1
        _changed: 0
      - _field: succeed
        _currentValue: all
        _recordChange: 1
        _changed: 0
      - _field: tiebreaker
        _currentValue: fail
        _recordChange: 1
        _changed: 0
      _type: 14
      _stateIndex: 53
      _parent: 67
      _lastUpdate: 635447551758687162
      _children: 3300000032000000
      _variables: 
      _focused: 0
    - _fields: []
      _type: 0
      _stateIndex: 0
      _parent: 0
      _lastUpdate: 0
      _children: 
      _variables: 
      _focused: 0
    - _fields: []
      _type: 0
      _stateIndex: 0
      _parent: 0
      _lastUpdate: 0
      _children: 
      _variables: 
      _focused: 0
    - _fields: []
      _type: 0
      _stateIndex: 0
      _parent: 0
      _lastUpdate: 0
      _children: 
      _variables: 
      _focused: 0
    - _fields: []
      _type: 0
      _stateIndex: 0
      _parent: 0
      _lastUpdate: 0
      _children: 
      _variables: 
      _focused: 0
    - _fields: []
      _type: 0
      _stateIndex: 0
      _parent: 0
      _lastUpdate: 0
      _children: 
      _variables: 
      _focused: 0
    - _fields: []
      _type: 0
      _stateIndex: 0
      _parent: 0
      _lastUpdate: 0
      _children: 
      _variables: 
      _focused: 0
    - _fields: []
      _type: 0
      _stateIndex: 0
      _parent: 0
      _lastUpdate: 0
      _children: 
      _variables: 
      _focused: 0
    - _fields: []
      _type: 0
      _stateIndex: 0
      _parent: 0
      _lastUpdate: 0
      _children: 
      _variables: 
      _focused: 0
    - _fields: []
      _type: 0
      _stateIndex: 0
      _parent: 0
      _lastUpdate: 0
      _children: 
      _variables: 
      _focused: 0
    - _fields: []
      _type: 0
      _stateIndex: 0
      _parent: 0
      _lastUpdate: 0
      _children: 
      _variables: 
      _focused: 0
    - _fields: []
      _type: 0
      _stateIndex: 0
      _parent: 0
      _lastUpdate: 0
      _children: 
      _variables: 
      _focused: 0
    - _fields: []
      _type: 0
      _stateIndex: 0
      _parent: 0
      _lastUpdate: 0
      _children: 
      _variables: 
      _focused: 0
    - _fields: []
      _type: 0
      _stateIndex: 0
      _parent: 0
      _lastUpdate: 0
      _children: 
      _variables: 
      _focused: 0
    - _fields:
      - _field: name
        _currentValue: valid patrol waypoint rig?
        _recordChange: 1
        _changed: 0
      - _field: open
        _currentValue: True
        _recordChange: 0
        _changed: 0
      - _field: repeatuntil
        _currentValue: running
        _recordChange: 1
        _changed: 0
      - _field: pausewhenhit
        _currentValue: False
        _recordChange: 0
        _changed: 0
      - _field: startingpriority
        _currentValue: 
        _recordChange: 1
        _changed: 0
      - _field: runningpriority
        _currentValue: 
        _recordChange: 1
        _changed: 0
      - _field: priority
        _currentValue: 
        _recordChange: 1
        _changed: 0
      - _field: weight
        _currentValue: 
        _recordChange: 1
        _changed: 0
      - _field: constraint
        _currentValue: patrol_wprig != ""
        _recordChange: 1
        _changed: 0
      _type: 5
      _stateIndex: 67
      _parent: 110
      _lastUpdate: 635447551758687162
      _children: 35000000
      _variables: 
      _focused: 0
    - _fields:
      - _field: name
        _currentValue: attacking = false
        _recordChange: 1
        _changed: 0
      - _field: repeatuntil
        _currentValue: 
        _recordChange: 1
        _changed: 0
      - _field: pausewhenhit
        _currentValue: False
        _recordChange: 0
        _changed: 0
      - _field: startingpriority
        _currentValue: 
        _recordChange: 1
        _changed: 0
      - _field: runningpriority
        _currentValue: 
        _recordChange: 1
        _changed: 0
      - _field: priority
        _currentValue: 
        _recordChange: 1
        _changed: 0
      - _field: weight
        _currentValue: 
        _recordChange: 1
        _changed: 0
      - _field: expression
        _currentValue: attack_attacking = false
        _recordChange: 1
        _changed: 0
      - _field: returnvalue
        _currentValue: success
        _recordChange: 1
        _changed: 0
      _type: 8
      _stateIndex: 68
      _parent: 110
      _lastUpdate: 0
      _children: 
      _variables: 
      _focused: 0
    - _fields: []
      _type: 0
      _stateIndex: 0
      _parent: 0
      _lastUpdate: 0
      _children: 
      _variables: 
      _focused: 0
    - _fields: []
      _type: 0
      _stateIndex: 0
      _parent: 0
      _lastUpdate: 0
      _children: 
      _variables: 
      _focused: 0
    - _fields: []
      _type: 0
      _stateIndex: 0
      _parent: 0
      _lastUpdate: 0
      _children: 
      _variables: 
      _focused: 0
    - _fields: []
      _type: 0
      _stateIndex: 0
      _parent: 0
      _lastUpdate: 0
      _children: 
      _variables: 
      _focused: 0
    - _fields: []
      _type: 0
      _stateIndex: 0
      _parent: 0
      _lastUpdate: 0
      _children: 
      _variables: 
      _focused: 0
    - _fields: []
      _type: 0
      _stateIndex: 0
      _parent: 0
      _lastUpdate: 0
      _children: 
      _variables: 
      _focused: 0
    - _fields: []
      _type: 0
      _stateIndex: 0
      _parent: 0
      _lastUpdate: 0
      _children: 
      _variables: 
      _focused: 0
    - _fields: []
      _type: 0
      _stateIndex: 0
      _parent: 0
      _lastUpdate: 0
      _children: 
      _variables: 
      _focused: 0
    - _fields: []
      _type: 0
      _stateIndex: 0
      _parent: 0
      _lastUpdate: 0
      _children: 
      _variables: 
      _focused: 0
    - _fields: []
      _type: 0
      _stateIndex: 0
      _parent: 0
      _lastUpdate: 0
      _children: 
      _variables: 
      _focused: 0
    - _fields: []
      _type: 0
      _stateIndex: 0
      _parent: 0
      _lastUpdate: 0
      _children: 
      _variables: 
      _focused: 0
    - _fields: []
      _type: 0
      _stateIndex: 0
      _parent: 0
      _lastUpdate: 0
      _children: 
      _variables: 
      _focused: 0
    - _fields: []
      _type: 0
      _stateIndex: 0
      _parent: 0
      _lastUpdate: 0
      _children: 
      _variables: 
      _focused: 0
    - _fields: []
      _type: 0
      _stateIndex: 0
      _parent: 0
      _lastUpdate: 0
      _children: 
      _variables: 
      _focused: 0
    - _fields: []
      _type: 0
      _stateIndex: 0
      _parent: 0
      _lastUpdate: 0
      _children: 
      _variables: 
      _focused: 0
    - _fields: []
      _type: 0
      _stateIndex: 0
      _parent: 0
      _lastUpdate: 0
      _children: 
      _variables: 
      _focused: 0
    - _fields: []
      _type: 0
      _stateIndex: 0
      _parent: 0
      _lastUpdate: 0
      _children: 
      _variables: 
      _focused: 0
    - _fields: []
      _type: 0
      _stateIndex: 0
      _parent: 0
      _lastUpdate: 0
      _children: 
      _variables: 
      _focused: 0
    - _fields: []
      _type: 0
      _stateIndex: 0
      _parent: 0
      _lastUpdate: 0
      _children: 
      _variables: 
      _focused: 0
    - _fields: []
      _type: 0
      _stateIndex: 0
      _parent: 0
      _lastUpdate: 0
      _children: 
      _variables: 
      _focused: 0
    - _fields: []
      _type: 0
      _stateIndex: 0
      _parent: 0
      _lastUpdate: 0
      _children: 
      _variables: 
      _focused: 0
    - _fields: []
      _type: 0
      _stateIndex: 0
      _parent: 0
      _lastUpdate: 0
      _children: 
      _variables: 
      _focused: 0
    - _fields: []
      _type: 0
      _stateIndex: 0
      _parent: 0
      _lastUpdate: 0
      _children: 
      _variables: 
      _focused: 0
    - _fields: []
      _type: 0
      _stateIndex: 0
      _parent: 0
      _lastUpdate: 0
      _children: 
      _variables: 
      _focused: 0
    - _fields: []
      _type: 0
      _stateIndex: 0
      _parent: 0
      _lastUpdate: 0
      _children: 
      _variables: 
      _focused: 0
    - _fields: []
      _type: 0
      _stateIndex: 0
      _parent: 0
      _lastUpdate: 0
      _children: 
      _variables: 
      _focused: 0
    - _fields: []
      _type: 0
      _stateIndex: 0
      _parent: 0
      _lastUpdate: 0
      _children: 
      _variables: 
      _focused: 0
    - _fields: []
      _type: 0
      _stateIndex: 0
      _parent: 0
      _lastUpdate: 0
      _children: 
      _variables: 
      _focused: 0
    - _fields: []
      _type: 0
      _stateIndex: 0
      _parent: 0
      _lastUpdate: 0
      _children: 
      _variables: 
      _focused: 0
    - _fields: []
      _type: 0
      _stateIndex: 0
      _parent: 0
      _lastUpdate: 0
      _children: 
      _variables: 
      _focused: 0
    - _fields:
      - _field: name
        _currentValue: hi = false
        _recordChange: 1
        _changed: 0
      - _field: repeatuntil
        _currentValue: 
        _recordChange: 1
        _changed: 0
      - _field: pausewhenhit
        _currentValue: False
        _recordChange: 0
        _changed: 0
      - _field: startingpriority
        _currentValue: 
        _recordChange: 1
        _changed: 0
      - _field: runningpriority
        _currentValue: 
        _recordChange: 1
        _changed: 0
      - _field: priority
        _currentValue: 
        _recordChange: 1
        _changed: 0
      - _field: weight
        _currentValue: 
        _recordChange: 1
        _changed: 0
      - _field: parametername
        _currentValue: Hi
        _recordChange: 1
        _changed: 0
      - _field: valueexpression
        _currentValue: false
        _recordChange: 1
        _changed: 0
      - _field: damptime
        _currentValue: 0
        _recordChange: 1
        _changed: 0
      - _field: parametertype
        _currentValue: boolean
        _recordChange: 1
        _changed: 0
      _type: 12
      _stateIndex: 99
      _parent: 110
      _lastUpdate: 0
      _children: 
      _variables: 
      _focused: 0
    - _fields: []
      _type: 0
      _stateIndex: 0
      _parent: 0
      _lastUpdate: 0
      _children: 
      _variables: 
      _focused: 0
    - _fields: []
      _type: 0
      _stateIndex: 0
      _parent: 0
      _lastUpdate: 0
      _children: 
      _variables: 
      _focused: 0
    - _fields: []
      _type: 0
      _stateIndex: 0
      _parent: 0
      _lastUpdate: 0
      _children: 
      _variables: 
      _focused: 0
    - _fields: []
      _type: 0
      _stateIndex: 0
      _parent: 0
      _lastUpdate: 0
      _children: 
      _variables: 
      _focused: 0
    - _fields: []
      _type: 0
      _stateIndex: 0
      _parent: 0
      _lastUpdate: 0
      _children: 
      _variables: 
      _focused: 0
    - _fields: []
      _type: 0
      _stateIndex: 0
      _parent: 0
      _lastUpdate: 0
      _children: 
      _variables: 
      _focused: 0
    - _fields: []
      _type: 0
      _stateIndex: 0
      _parent: 0
      _lastUpdate: 0
      _children: 
      _variables: 
      _focused: 0
    - _fields: []
      _type: 0
      _stateIndex: 0
      _parent: 0
      _lastUpdate: 0
      _children: 
      _variables: 
      _focused: 0
    - _fields: []
      _type: 0
      _stateIndex: 0
      _parent: 0
      _lastUpdate: 0
      _children: 
      _variables: 
      _focused: 0
    - _fields: []
      _type: 0
      _stateIndex: 0
      _parent: 0
      _lastUpdate: 0
      _children: 
      _variables: 
      _focused: 0
    - _fields:
      - _field: name
        _currentValue: parallel
        _recordChange: 1
        _changed: 0
      - _field: open
        _currentValue: True
        _recordChange: 0
        _changed: 0
      - _field: repeatuntil
        _currentValue: 
        _recordChange: 1
        _changed: 0
      - _field: pausewhenhit
        _currentValue: False
        _recordChange: 0
        _changed: 0
      - _field: startingpriority
        _currentValue: 
        _recordChange: 1
        _changed: 0
      - _field: runningpriority
        _currentValue: 
        _recordChange: 1
        _changed: 0
      - _field: priority
        _currentValue: 
        _recordChange: 1
        _changed: 0
      - _field: weight
        _currentValue: 
        _recordChange: 1
        _changed: 0
      - _field: fail
        _currentValue: all
        _recordChange: 1
        _changed: 0
      - _field: succeed
        _currentValue: all
        _recordChange: 1
        _changed: 0
      - _field: tiebreaker
        _currentValue: fail
        _recordChange: 1
        _changed: 0
      _type: 14
      _stateIndex: 110
      _parent: 111
      _lastUpdate: 635447551758687162
      _children: 630000004400000043000000
      _variables: 
      _focused: 0
    - _fields:
      - _field: name
        _currentValue: cannot see player
        _recordChange: 1
        _changed: 0
      - _field: open
        _currentValue: True
        _recordChange: 0
        _changed: 0
      - _field: repeatuntil
        _currentValue: running
        _recordChange: 1
        _changed: 0
      - _field: pausewhenhit
        _currentValue: False
        _recordChange: 0
        _changed: 0
      - _field: startingpriority
        _currentValue: 
        _recordChange: 1
        _changed: 0
      - _field: runningpriority
        _currentValue: 
        _recordChange: 1
        _changed: 0
      - _field: priority
        _currentValue: 
        _recordChange: 1
        _changed: 0
      - _field: weight
        _currentValue: 
        _recordChange: 1
        _changed: 0
      - _field: constraint
        _currentValue: attack_target == null
        _recordChange: 1
        _changed: 0
      _type: 5
      _stateIndex: 111
      _parent: 113
      _lastUpdate: 635447551758687162
      _children: 6e000000
      _variables: 
      _focused: 0
    - _fields:
      - _field: name
        _currentValue: 'vision: check for player'
        _recordChange: 1
        _changed: 0
      - _field: repeatuntil
        _currentValue: running
        _recordChange: 1
        _changed: 0
      - _field: pausewhenhit
        _currentValue: False
        _recordChange: 0
        _changed: 0
      - _field: startingpriority
        _currentValue: 
        _recordChange: 1
        _changed: 0
      - _field: runningpriority
        _currentValue: 
        _recordChange: 1
        _changed: 0
      - _field: priority
        _currentValue: 
        _recordChange: 1
        _changed: 0
      - _field: weight
        _currentValue: 
        _recordChange: 1
        _changed: 0
      - _field: sensor
        _currentValue: '"sen_visual"'
        _recordChange: 1
        _changed: 0
      - _field: aspect
        _currentValue: '"asp_vis_player"'
        _recordChange: 1
        _changed: 0
      - _field: entityobjectvariable
        _currentValue: attack_target
        _recordChange: 1
        _changed: 0
      - _field: aspectvariable
        _currentValue: attack_target_asp
        _recordChange: 1
        _changed: 0
      - _field: aspectobjectvariable
        _currentValue: attack_target_mp
        _recordChange: 1
        _changed: 0
      _type: 6
      _stateIndex: 112
      _parent: 113
      _lastUpdate: 0
      _children: 
      _variables: 
      _focused: 0
    - _fields:
      - _field: name
        _currentValue: root
        _recordChange: 1
        _changed: 0
      - _field: open
        _currentValue: True
        _recordChange: 0
        _changed: 0
      - _field: repeatuntil
        _currentValue: 
        _recordChange: 1
        _changed: 0
      - _field: pausewhenhit
        _currentValue: False
        _recordChange: 0
        _changed: 0
      - _field: startingpriority
        _currentValue: 
        _recordChange: 1
        _changed: 0
      - _field: runningpriority
        _currentValue: 
        _recordChange: 1
        _changed: 0
      - _field: priority
        _currentValue: 
        _recordChange: 1
        _changed: 0
      - _field: weight
        _currentValue: 
        _recordChange: 1
        _changed: 0
      - _field: fail
        _currentValue: all
        _recordChange: 1
        _changed: 0
      - _field: succeed
        _currentValue: all
        _recordChange: 1
        _changed: 0
      - _field: tiebreaker
        _currentValue: fail
        _recordChange: 1
        _changed: 0
      _type: 14
      _stateIndex: 113
      _parent: 114
      _lastUpdate: 635447551758697162
      _children: 700000006f00000030000000
      _variables: 
      _focused: 0
    - _fields:
      - _field: name
        _currentValue: AI_BT_Soldier
        _recordChange: 1
        _changed: 0
      - _field: open
        _currentValue: True
        _recordChange: 0
        _changed: 0
      - _field: repeatuntil
        _currentValue: 
        _recordChange: 1
        _changed: 0
      - _field: pausewhenhit
        _currentValue: False
        _recordChange: 0
        _changed: 0
      - _field: startingpriority
        _currentValue: 
        _recordChange: 1
        _changed: 0
      - _field: runningpriority
        _currentValue: 
        _recordChange: 1
        _changed: 0
      - _field: priority
        _currentValue: 
        _recordChange: 1
        _changed: 0
      - _field: weight
        _currentValue: 
        _recordChange: 1
        _changed: 0
      _type: 4
      _stateIndex: 114
      _parent: 0
      _lastUpdate: 635447551953528306
      _children: 71000000
      _variables: 
      _focused: 0
    _freeList: 0100000034000000360000003700000038000000390000003a0000003b0000003c0000003d0000003e0000003f00000040000000410000004200000045000000460000004700000048000000490000004a0000004b0000004c0000004d0000004e0000004f000000500000005100000052000000530000005400000055000000560000005700000058000000590000005a0000005b0000005c0000005d0000005e0000005f0000006000000061000000620000006400000065000000660000006700000068000000690000006a0000006b0000006c0000006d000000
