%YAML 1.1
%TAG !u! tag:unity3d.com,2011:
--- !u!21 &2100000
Material:
  serializedVersion: 3
  m_ObjectHideFlags: 0
  m_PrefabParentObject: {fileID: 0}
  m_PrefabInternal: {fileID: 0}
  m_Name: flesh_bloody_COLOR_SPEC
  m_Shader: {fileID: 4800000, guid: 9c86a1307dfbb4f44920f47d98476f22, type: 3}
  m_ShaderKeywords: []
  m_CustomRenderQueue: -1
  m_SavedProperties:
    serializedVersion: 2
    m_TexEnvs:
      data:
        first:
          name: _MainTex
        second:
          m_Texture: {fileID: 2800000, guid: 47c0163d10bafd446b418ac449b6da4c, type: 3}
          m_Scale: {x: 1, y: 1}
          m_Offset: {x: 0, y: 0}
      data:
        first:
          name: _DetailTex
        second:
          m_Texture: {fileID: 0}
          m_Scale: {x: 1, y: 1}
          m_Offset: {x: 0, y: 0}
    m_Floats:
      data:
        first:
          name: _DetailOccPower
        second: 1
      data:
        first:
          name: _DetailSpecShininess
        second: .75
      data:
        first:
          name: _DetailSpecPower
        second: .25
      data:
        first:
          name: _SnowStrength
        second: 1
      data:
        first:
          name: _DetailDispMax
        second: .300000012
    m_Colors: {}
