%YAML 1.1
%TAG !u! tag:unity3d.com,2011:
--- !u!74 &7400000
AnimationClip:
  m_ObjectHideFlags: 0
  m_PrefabParentObject: {fileID: 0}
  m_PrefabInternal: {fileID: 0}
  m_Name: LightningAnimation01
  serializedVersion: 4
  m_AnimationType: 1
  m_Compressed: 0
  m_UseHighQualityCurve: 1
  m_RotationCurves: []
  m_CompressedRotationCurves: []
  m_PositionCurves: []
  m_ScaleCurves: []
  m_FloatCurves:
  - curve:
      serializedVersion: 2
      m_Curve:
      - time: 0
        value: 0
        inSlope: 259.015594
        outSlope: 259.015594
        tangentMode: 10
      - time: .366666675
        value: 94.9723816
        inSlope: 24.9725342
        outSlope: 24.9725342
        tangentMode: 10
      - time: .566666663
        value: 53.1582794
        inSlope: 58.794754
        outSlope: 58.794754
        tangentMode: 10
      - time: .75
        value: 113.045952
        inSlope: 22.0225677
        outSlope: 22.0225677
        tangentMode: 10
      - time: 1.14999998
        value: 0
        inSlope: 44.4294128
        outSlope: 44.4294128
        tangentMode: 10
      - time: 1.70000005
        value: 204.310577
        inSlope: 116.969002
        outSlope: 116.969002
        tangentMode: 10
      - time: 2.45000005
        value: 101.158783
        inSlope: -159.670181
        outSlope: -159.670181
        tangentMode: 10
      - time: 3
        value: 1.1662364
        inSlope: -181.804642
        outSlope: -181.804642
        tangentMode: 10
      m_PreInfinity: 2
      m_PostInfinity: 2
    attribute: m_Intensity
    path: 
    classID: 108
    script: {fileID: 0}
  - curve:
      serializedVersion: 2
      m_Curve:
      - time: 0
        value: -2.36181641
        inSlope: 3005.31958
        outSlope: 3005.31958
        tangentMode: 10
      - time: .316666663
        value: 949.322693
        inSlope: 4174.30762
        outSlope: 4174.30762
        tangentMode: 10
      - time: .433333337
        value: 1572.70728
        inSlope: -968.247803
        outSlope: -968.247803
        tangentMode: 10
      - time: .566666663
        value: 602.068481
        inSlope: -1200.34326
        outSlope: -1200.34326
        tangentMode: 10
      - time: .716666639
        value: 1333.93408
        inSlope: 412.375854
        outSlope: 412.375854
        tangentMode: 10
      - time: .816666663
        value: 928.498657
        inSlope: -1315.91577
        outSlope: -1315.91577
        tangentMode: 10
      - time: .899999976
        value: 1047.04211
        inSlope: -658.310852
        outSlope: -658.310852
        tangentMode: 10
      - time: 1.10000002
        value: 499.213257
        inSlope: -253.830322
        outSlope: -253.830322
        tangentMode: 10
      - time: 1.16666663
        value: 647.978638
        inSlope: 498.355225
        outSlope: 498.355225
        tangentMode: 10
      - time: 1.2833333
        value: 503.921844
        inSlope: -861.587463
        outSlope: -861.587463
        tangentMode: 10
      - time: 1.48333335
        value: 406.241333
        inSlope: 1427.34448
        outSlope: 1427.34448
        tangentMode: 10
      - time: 1.58333337
        value: 740.550537
        inSlope: 2956.49341
        outSlope: 2956.49341
        tangentMode: 10
      - time: 1.70000005
        value: 1040.3717
        inSlope: -21.1330566
        outSlope: -21.1330566
        tangentMode: 10
      - time: 1.83333337
        value: 692.083496
        inSlope: -1899.86011
        outSlope: -1899.86011
        tangentMode: 10
      - time: 2.08333325
        value: 395.19397
        inSlope: -568.922485
        outSlope: -568.922485
        tangentMode: 10
      - time: 2.26666665
        value: 404.308167
        inSlope: -310.82666
        outSlope: -310.82666
        tangentMode: 10
      - time: 2.5
        value: 247.655823
        inSlope: -245.112732
        outSlope: -245.112732
        tangentMode: 10
      - time: 2.76666665
        value: 295.960266
        inSlope: -543.629639
        outSlope: -543.629639
        tangentMode: 10
      - time: 3
        value: 0
        inSlope: -1268.401
        outSlope: -1268.401
        tangentMode: 10
      m_PreInfinity: 2
      m_PostInfinity: 2
    attribute: m_Range
    path: 
    classID: 108
    script: {fileID: 0}
  m_PPtrCurves: []
  m_SampleRate: 60
  m_WrapMode: 0
  m_Bounds:
    m_Center: {x: 0, y: 0, z: 0}
    m_Extent: {x: 0, y: 0, z: 0}
  m_ClipBindingConstant:
    genericBindings: []
    pptrCurveMapping: []
  m_AnimationClipSettings:
    serializedVersion: 2
    m_StartTime: 0
    m_StopTime: 1
    m_OrientationOffsetY: 0
    m_Level: 0
    m_CycleOffset: 0
    m_LoopTime: 0
    m_LoopBlend: 0
    m_LoopBlendOrientation: 0
    m_LoopBlendPositionY: 0
    m_LoopBlendPositionXZ: 0
    m_KeepOriginalOrientation: 0
    m_KeepOriginalPositionY: 1
    m_KeepOriginalPositionXZ: 0
    m_HeightFromFeet: 0
    m_Mirror: 0
  m_EditorCurves:
  - curve:
      serializedVersion: 2
      m_Curve:
      - time: 0
        value: 0
        inSlope: 259.015594
        outSlope: 259.015594
        tangentMode: 10
      - time: .366666675
        value: 94.9723816
        inSlope: 24.9725342
        outSlope: 24.9725342
        tangentMode: 10
      - time: .566666663
        value: 53.1582794
        inSlope: 58.794754
        outSlope: 58.794754
        tangentMode: 10
      - time: .75
        value: 113.045952
        inSlope: 22.0225677
        outSlope: 22.0225677
        tangentMode: 10
      - time: 1.14999998
        value: 0
        inSlope: 44.4294128
        outSlope: 44.4294128
        tangentMode: 10
      - time: 1.70000005
        value: 204.310577
        inSlope: 116.969002
        outSlope: 116.969002
        tangentMode: 10
      - time: 2.45000005
        value: 101.158783
        inSlope: -159.670181
        outSlope: -159.670181
        tangentMode: 10
      - time: 3
        value: 1.1662364
        inSlope: -181.804642
        outSlope: -181.804642
        tangentMode: 10
      m_PreInfinity: 2
      m_PostInfinity: 2
    attribute: m_Intensity
    path: 
    classID: 108
    script: {fileID: 0}
  - curve:
      serializedVersion: 2
      m_Curve:
      - time: 0
        value: -2.36181641
        inSlope: 3005.31958
        outSlope: 3005.31958
        tangentMode: 10
      - time: .316666663
        value: 949.322693
        inSlope: 4174.30762
        outSlope: 4174.30762
        tangentMode: 10
      - time: .433333337
        value: 1572.70728
        inSlope: -968.247803
        outSlope: -968.247803
        tangentMode: 10
      - time: .566666663
        value: 602.068481
        inSlope: -1200.34326
        outSlope: -1200.34326
        tangentMode: 10
      - time: .716666639
        value: 1333.93408
        inSlope: 412.375854
        outSlope: 412.375854
        tangentMode: 10
      - time: .816666663
        value: 928.498657
        inSlope: -1315.91577
        outSlope: -1315.91577
        tangentMode: 10
      - time: .899999976
        value: 1047.04211
        inSlope: -658.310852
        outSlope: -658.310852
        tangentMode: 10
      - time: 1.10000002
        value: 499.213257
        inSlope: -253.830322
        outSlope: -253.830322
        tangentMode: 10
      - time: 1.16666663
        value: 647.978638
        inSlope: 498.355225
        outSlope: 498.355225
        tangentMode: 10
      - time: 1.2833333
        value: 503.921844
        inSlope: -861.587463
        outSlope: -861.587463
        tangentMode: 10
      - time: 1.48333335
        value: 406.241333
        inSlope: 1427.34448
        outSlope: 1427.34448
        tangentMode: 10
      - time: 1.58333337
        value: 740.550537
        inSlope: 2956.49341
        outSlope: 2956.49341
        tangentMode: 10
      - time: 1.70000005
        value: 1040.3717
        inSlope: -21.1330566
        outSlope: -21.1330566
        tangentMode: 10
      - time: 1.83333337
        value: 692.083496
        inSlope: -1899.86011
        outSlope: -1899.86011
        tangentMode: 10
      - time: 2.08333325
        value: 395.19397
        inSlope: -568.922485
        outSlope: -568.922485
        tangentMode: 10
      - time: 2.26666665
        value: 404.308167
        inSlope: -310.82666
        outSlope: -310.82666
        tangentMode: 10
      - time: 2.5
        value: 247.655823
        inSlope: -245.112732
        outSlope: -245.112732
        tangentMode: 10
      - time: 2.76666665
        value: 295.960266
        inSlope: -543.629639
        outSlope: -543.629639
        tangentMode: 10
      - time: 3
        value: 0
        inSlope: -1268.401
        outSlope: -1268.401
        tangentMode: 10
      m_PreInfinity: 2
      m_PostInfinity: 2
    attribute: m_Range
    path: 
    classID: 108
    script: {fileID: 0}
  m_EulerEditorCurves: []
  m_Events:
  - time: .25
    functionName: PlaySound
    data: 
    objectReferenceParameter: {fileID: 0}
    floatParameter: 0
    intParameter: 0
    messageOptions: 0
